,genero,data_nascimento,cidade,estado,doenca
0,Female,**/**/**,*,KS,dengue
1,Female,**/**/**,*,KS,hepatite
2,Female,**/**/**,*,KS,cancer
3,Female,**/**/**,*,KS,dengue
4,Female,**/**/**,*,KS,aids
5,Female,**/**/**,*,KS,dengue
6,Female,**/**/**,*,KS,caxumba
7,Female,**/**/**,*,KS,aids
8,Female,**/**/**,*,KS,caxumba
9,Female,**/**/**,*,KS,hepatite
10,Female,**/**/**,*,KS,catapora
11,Female,**/**/**,*,KS,aids
12,Female,**/**/**,*,KS,bronquite
13,Female,**/**/**,*,KS,hepatite
14,Female,**/**/**,*,KS,dengue
15,Female,**/**/**,*,KS,aids
16,Female,**/**/**,*,KS,bronquite
17,Female,**/**/**,*,KS,aids
18,Female,**/**/**,*,KS,cancer
19,Female,**/**/**,*,KS,bronquite
20,Female,**/**/2017,Shawnee Mission,KS,caxumba
21,Female,**/**/2017,Shawnee Mission,KS,caxumba
22,Female,**/**/2017,Shawnee Mission,KS,caxumba
23,Female,**/**/2017,Shawnee Mission,KS,bronquite
24,Female,**/**/2017,Shawnee Mission,KS,hepatite
25,Female,**/**/2017,Shawnee Mission,KS,caxumba
26,Female,**/**/2017,Shawnee Mission,KS,catapora
27,Female,**/**/2017,Shawnee Mission,KS,catapora
28,Female,**/**/2017,Shawnee Mission,KS,caxumba
29,Female,**/**/2017,Shawnee Mission,KS,catapora
30,Female,**/**/2017,Shawnee Mission,KS,bronquite
31,Female,**/**/2017,Shawnee Mission,KS,bronquite
32,Female,**/**/2017,Shawnee Mission,KS,caxumba
33,Female,**/**/2017,Shawnee Mission,KS,hepatite
34,Female,**/**/2017,Shawnee Mission,KS,catapora
35,Female,**/**/2017,Shawnee Mission,KS,febre
36,Female,**/**/2017,Shawnee Mission,KS,febre
37,Female,**/**/2017,Shawnee Mission,KS,febre
38,Female,**/**/2017,Shawnee Mission,KS,caxumba
39,Female,**/**/2017,Shawnee Mission,KS,febre
40,Female,**/**/**,*,KS,cancer
41,Female,**/**/**,*,KS,febre
42,Female,**/**/**,*,KS,dengue
43,Female,**/**/**,*,KS,caxumba
44,Female,**/**/**,*,KS,caxumba
45,Female,**/**/**,*,KS,hepatite
46,Female,**/**/**,*,KS,dengue
47,Female,**/**/**,*,KS,caxumba
48,Female,**/**/**,*,KS,cancer
49,Female,**/**/**,*,KS,caxumba
50,Female,**/**/**,*,KS,caxumba
51,Female,**/**/**,*,KS,febre
52,Female,**/**/**,*,KS,febre
53,Female,**/**/**,*,KS,cancer
54,Female,**/**/**,*,KS,bronquite
55,Female,**/**/**,*,KS,catapora
56,Female,**/**/**,*,KS,febre
57,Female,**/**/**,*,KS,catapora
58,Female,**/**/**,*,KS,caxumba
59,Female,**/**/**,*,KS,cancer
60,Female,**/**/**,Topeka,KS,dengue
61,Female,**/**/**,Topeka,KS,bronquite
62,Female,**/**/**,Topeka,KS,febre
63,Female,**/**/**,Topeka,KS,dengue
64,Female,**/**/**,Topeka,KS,catapora
65,Female,**/**/**,Topeka,KS,cancer
66,Female,**/**/**,Topeka,KS,caxumba
67,Female,**/**/**,Topeka,KS,cancer
68,Female,**/**/**,Topeka,KS,hepatite
69,Female,**/**/**,Topeka,KS,febre
70,Female,**/**/**,Topeka,KS,aids
71,Female,**/**/**,Topeka,KS,caxumba
72,Female,**/**/**,Topeka,KS,caxumba
73,Female,**/**/**,Topeka,KS,dengue
74,Female,**/**/**,Topeka,KS,hepatite
75,Female,**/**/**,Topeka,KS,febre
76,Female,**/**/**,Topeka,KS,bronquite
77,Female,**/**/**,Topeka,KS,cancer
78,Female,**/**/**,Topeka,KS,catapora
79,Female,**/**/**,Topeka,KS,aids
80,Female,**/**/**,*,KS,hepatite
81,Female,**/**/**,*,KS,dengue
82,Female,**/**/**,*,KS,febre
83,Female,**/**/**,*,KS,caxumba
84,Female,**/**/**,*,KS,aids
85,Female,**/**/**,*,KS,bronquite
86,Female,**/**/**,*,KS,febre
87,Female,**/**/**,*,KS,caxumba
88,Female,**/**/**,*,KS,bronquite
89,Female,**/**/**,*,KS,dengue
90,Female,**/**/**,*,KS,aids
91,Female,**/**/**,*,KS,bronquite
92,Female,**/**/**,*,KS,bronquite
93,Female,**/**/**,*,KS,cancer
94,Female,**/**/**,*,KS,bronquite
95,Female,**/**/**,*,KS,febre
96,Female,**/**/**,*,KS,febre
97,Female,**/**/**,*,KS,cancer
98,Female,**/**/**,*,KS,dengue
99,Female,**/**/**,*,KS,febre
100,Female,**/**/2017,Wichita,KS,febre
101,Female,**/**/2017,Wichita,KS,dengue
102,Female,**/**/2017,Wichita,KS,catapora
103,Female,**/**/2017,Wichita,KS,hepatite
104,Female,**/**/2017,Wichita,KS,hepatite
105,Female,**/**/2017,Wichita,KS,hepatite
106,Female,**/**/2017,Wichita,KS,caxumba
107,Female,**/**/2017,Wichita,KS,febre
108,Female,**/**/2017,Wichita,KS,febre
109,Female,**/**/2017,Wichita,KS,febre
110,Female,**/**/2017,Wichita,KS,catapora
111,Female,**/**/2017,Wichita,KS,caxumba
112,Female,**/**/2017,Wichita,KS,cancer
113,Female,**/**/2017,Wichita,KS,caxumba
114,Female,**/**/2017,Wichita,KS,aids
115,Female,**/**/2017,Wichita,KS,aids
116,Female,**/**/2017,Wichita,KS,febre
117,Female,**/**/2017,Wichita,KS,bronquite
118,Female,**/**/2017,Wichita,KS,dengue
119,Female,**/**/2017,Wichita,KS,hepatite
120,Female,**/**/**,*,*,cancer
121,Female,**/**/**,*,*,cancer
122,Female,**/**/**,*,*,hepatite
123,Female,**/**/**,*,*,dengue
124,Female,**/**/**,*,*,hepatite
125,Female,**/**/**,*,*,febre
126,Female,**/**/**,*,*,cancer
127,Female,**/**/**,*,*,caxumba
128,Female,**/**/**,*,*,bronquite
129,Female,**/**/**,*,*,catapora
130,Female,**/**/**,*,*,caxumba
131,Female,**/**/**,*,*,febre
132,Female,**/**/**,*,*,bronquite
133,Female,**/**/**,*,*,aids
134,Female,**/**/**,*,*,febre
135,Female,**/**/**,*,*,aids
136,Female,**/**/**,*,*,dengue
137,Female,**/**/**,*,*,bronquite
138,Female,**/**/**,*,*,febre
139,Female,**/**/**,*,*,bronquite
140,Female,**/**/**,*,NJ,hepatite
141,Female,**/**/**,*,NJ,bronquite
142,Female,**/**/**,*,NJ,dengue
143,Female,**/**/**,*,NJ,catapora
144,Female,**/**/**,*,NJ,caxumba
145,Female,**/**/**,*,NJ,aids
146,Female,**/**/**,*,NJ,caxumba
147,Female,**/**/**,*,NJ,cancer
148,Female,**/**/**,*,NJ,hepatite
149,Female,**/**/**,*,NJ,aids
150,Female,**/**/**,*,NJ,hepatite
151,Female,**/**/**,*,NJ,aids
152,Female,**/**/**,*,NJ,catapora
153,Female,**/**/**,*,NJ,bronquite
154,Female,**/**/**,*,NJ,bronquite
155,Female,**/**/**,*,NJ,aids
156,Female,**/**/**,*,NJ,febre
157,Female,**/**/**,*,NJ,hepatite
158,Female,**/**/**,*,NJ,dengue
159,Female,**/**/**,*,NJ,dengue
160,Female,**/**/**,*,NJ,cancer
161,Female,**/**/**,*,NJ,hepatite
162,Female,**/**/**,*,NJ,cancer
163,Female,**/**/**,*,NJ,bronquite
164,Female,**/**/**,*,NJ,bronquite
165,Female,**/**/**,*,NJ,bronquite
166,Female,**/**/**,*,NJ,caxumba
167,Female,**/**/**,*,NJ,febre
168,Female,**/**/**,*,NJ,cancer
169,Female,**/**/**,*,NJ,bronquite
170,Female,**/**/**,*,NJ,aids
171,Female,**/**/**,*,NJ,febre
172,Female,**/**/**,*,NJ,hepatite
173,Female,**/**/**,*,NJ,caxumba
174,Female,**/**/**,*,NJ,febre
175,Female,**/**/**,*,NJ,hepatite
176,Female,**/**/**,*,NJ,dengue
177,Female,**/**/**,*,NJ,catapora
178,Female,**/**/**,*,NJ,catapora
179,Female,**/**/**,*,NJ,febre
180,Female,**/**/**,*,*,caxumba
181,Female,**/**/**,*,*,dengue
182,Female,**/**/**,*,*,febre
183,Female,**/**/**,*,*,caxumba
184,Female,**/**/**,*,*,aids
185,Female,**/**/**,*,*,bronquite
186,Female,**/**/**,*,*,bronquite
187,Female,**/**/**,*,*,bronquite
188,Female,**/**/**,*,*,bronquite
189,Female,**/**/**,*,*,aids
190,Female,**/**/**,*,*,cancer
191,Female,**/**/**,*,*,catapora
192,Female,**/**/**,*,*,caxumba
193,Female,**/**/**,*,*,caxumba
194,Female,**/**/**,*,*,catapora
195,Female,**/**/**,*,*,dengue
196,Female,**/**/**,*,*,caxumba
197,Female,**/**/**,*,*,febre
198,Female,**/**/**,*,*,cancer
199,Female,**/**/**,*,*,catapora
200,Female,**/**/2017,Albany,NY,dengue
201,Female,**/**/2017,Albany,NY,caxumba
202,Female,**/**/2017,Albany,NY,febre
203,Female,**/**/2017,Albany,NY,febre
204,Female,**/**/2017,Albany,NY,hepatite
205,Female,**/**/2017,Albany,NY,caxumba
206,Female,**/**/2017,Albany,NY,catapora
207,Female,**/**/2017,Albany,NY,febre
208,Female,**/**/2017,Albany,NY,catapora
209,Female,**/**/2017,Albany,NY,cancer
210,Female,**/**/2017,Albany,NY,febre
211,Female,**/**/2017,Albany,NY,febre
212,Female,**/**/2017,Albany,NY,aids
213,Female,**/**/2017,Albany,NY,aids
214,Female,**/**/2017,Albany,NY,dengue
215,Female,**/**/2017,Albany,NY,catapora
216,Female,**/**/2017,Albany,NY,aids
217,Female,**/**/2017,Albany,NY,caxumba
218,Female,**/**/2017,Albany,NY,catapora
219,Female,**/**/2017,Albany,NY,dengue
220,Female,**/**/**,Albany,NY,bronquite
221,Female,**/**/**,Albany,NY,cancer
222,Female,**/**/**,Albany,NY,hepatite
223,Female,**/**/**,Albany,NY,caxumba
224,Female,**/**/**,Albany,NY,cancer
225,Female,**/**/**,Albany,NY,dengue
226,Female,**/**/**,Albany,NY,cancer
227,Female,**/**/**,Albany,NY,febre
228,Female,**/**/**,Albany,NY,bronquite
229,Female,**/**/**,Albany,NY,caxumba
230,Female,**/**/**,Albany,NY,bronquite
231,Female,**/**/**,Albany,NY,febre
232,Female,**/**/**,Albany,NY,caxumba
233,Female,**/**/**,Albany,NY,cancer
234,Female,**/**/**,Albany,NY,bronquite
235,Female,**/**/**,Albany,NY,bronquite
236,Female,**/**/**,Albany,NY,cancer
237,Female,**/**/**,Albany,NY,caxumba
238,Female,**/**/**,Albany,NY,catapora
239,Female,**/**/**,Albany,NY,catapora
240,Female,**/**/**,*,NY,catapora
241,Female,**/**/**,*,NY,dengue
242,Female,**/**/**,*,NY,bronquite
243,Female,**/**/**,*,NY,catapora
244,Female,**/**/**,*,NY,hepatite
245,Female,**/**/**,*,NY,aids
246,Female,**/**/**,*,NY,caxumba
247,Female,**/**/**,*,NY,febre
248,Female,**/**/**,*,NY,hepatite
249,Female,**/**/**,*,NY,dengue
250,Female,**/**/**,*,NY,aids
251,Female,**/**/**,*,NY,hepatite
252,Female,**/**/**,*,NY,cancer
253,Female,**/**/**,*,NY,febre
254,Female,**/**/**,*,NY,caxumba
255,Female,**/**/**,*,NY,catapora
256,Female,**/**/**,*,NY,catapora
257,Female,**/**/**,*,NY,caxumba
258,Female,**/**/**,*,NY,hepatite
259,Female,**/**/**,*,NY,bronquite
260,Female,**/**/**,*,NY,bronquite
261,Female,**/**/**,*,NY,dengue
262,Female,**/**/**,*,NY,caxumba
263,Female,**/**/**,*,NY,catapora
264,Female,**/**/**,*,NY,hepatite
265,Female,**/**/**,*,NY,cancer
266,Female,**/**/**,*,NY,dengue
267,Female,**/**/**,*,NY,aids
268,Female,**/**/**,*,NY,febre
269,Female,**/**/**,*,NY,cancer
270,Female,**/**/**,*,NY,bronquite
271,Female,**/**/**,*,NY,cancer
272,Female,**/**/**,*,NY,dengue
273,Female,**/**/**,*,NY,hepatite
274,Female,**/**/**,*,NY,febre
275,Female,**/**/**,*,NY,cancer
276,Female,**/**/**,*,NY,bronquite
277,Female,**/**/**,*,NY,catapora
278,Female,**/**/**,*,NY,aids
279,Female,**/**/**,*,NY,bronquite
280,Female,**/**/2017,Brooklyn,NY,dengue
281,Female,**/**/2017,Brooklyn,NY,febre
282,Female,**/**/2017,Brooklyn,NY,hepatite
283,Female,**/**/2017,Brooklyn,NY,caxumba
284,Female,**/**/2017,Brooklyn,NY,caxumba
285,Female,**/**/2017,Brooklyn,NY,cancer
286,Female,**/**/2017,Brooklyn,NY,catapora
287,Female,**/**/2017,Brooklyn,NY,dengue
288,Female,**/**/2017,Brooklyn,NY,cancer
289,Female,**/**/2017,Brooklyn,NY,bronquite
290,Female,**/**/2017,Brooklyn,NY,bronquite
291,Female,**/**/2017,Brooklyn,NY,caxumba
292,Female,**/**/2017,Brooklyn,NY,febre
293,Female,**/**/2017,Brooklyn,NY,dengue
294,Female,**/**/2017,Brooklyn,NY,catapora
295,Female,**/**/2017,Brooklyn,NY,cancer
296,Female,**/**/2017,Brooklyn,NY,dengue
297,Female,**/**/2017,Brooklyn,NY,cancer
298,Female,**/**/2017,Brooklyn,NY,aids
299,Female,**/**/2017,Brooklyn,NY,cancer
300,Female,**/**/**,Brooklyn,NY,catapora
301,Female,**/**/**,Brooklyn,NY,aids
302,Female,**/**/**,Brooklyn,NY,caxumba
303,Female,**/**/**,Brooklyn,NY,dengue
304,Female,**/**/**,Brooklyn,NY,dengue
305,Female,**/**/**,Brooklyn,NY,aids
306,Female,**/**/**,Brooklyn,NY,febre
307,Female,**/**/**,Brooklyn,NY,caxumba
308,Female,**/**/**,Brooklyn,NY,catapora
309,Female,**/**/**,Brooklyn,NY,caxumba
310,Female,**/**/**,Brooklyn,NY,aids
311,Female,**/**/**,Brooklyn,NY,caxumba
312,Female,**/**/**,Brooklyn,NY,hepatite
313,Female,**/**/**,Brooklyn,NY,caxumba
314,Female,**/**/**,Brooklyn,NY,bronquite
315,Female,**/**/**,Brooklyn,NY,febre
316,Female,**/**/**,Brooklyn,NY,caxumba
317,Female,**/**/**,Brooklyn,NY,dengue
318,Female,**/**/**,Brooklyn,NY,hepatite
319,Female,**/**/**,Brooklyn,NY,febre
320,Female,**/**/**,*,NY,hepatite
321,Female,**/**/**,*,NY,catapora
322,Female,**/**/**,*,NY,caxumba
323,Female,**/**/**,*,NY,aids
324,Female,**/**/**,*,NY,bronquite
325,Female,**/**/**,*,NY,febre
326,Female,**/**/**,*,NY,hepatite
327,Female,**/**/**,*,NY,catapora
328,Female,**/**/**,*,NY,bronquite
329,Female,**/**/**,*,NY,bronquite
330,Female,**/**/**,*,NY,dengue
331,Female,**/**/**,*,NY,catapora
332,Female,**/**/**,*,NY,cancer
333,Female,**/**/**,*,NY,aids
334,Female,**/**/**,*,NY,hepatite
335,Female,**/**/**,*,NY,bronquite
336,Female,**/**/**,*,NY,febre
337,Female,**/**/**,*,NY,febre
338,Female,**/**/**,*,NY,febre
339,Female,**/**/**,*,NY,hepatite
340,Female,**/**/**,Buffalo,NY,hepatite
341,Female,**/**/**,Buffalo,NY,febre
342,Female,**/**/**,Buffalo,NY,bronquite
343,Female,**/**/**,Buffalo,NY,dengue
344,Female,**/**/**,Buffalo,NY,cancer
345,Female,**/**/**,Buffalo,NY,catapora
346,Female,**/**/**,Buffalo,NY,bronquite
347,Female,**/**/**,Buffalo,NY,hepatite
348,Female,**/**/**,Buffalo,NY,febre
349,Female,**/**/**,Buffalo,NY,caxumba
350,Female,**/**/**,Buffalo,NY,febre
351,Female,**/**/**,Buffalo,NY,catapora
352,Female,**/**/**,Buffalo,NY,caxumba
353,Female,**/**/**,Buffalo,NY,caxumba
354,Female,**/**/**,Buffalo,NY,febre
355,Female,**/**/**,Buffalo,NY,hepatite
356,Female,**/**/**,Buffalo,NY,hepatite
357,Female,**/**/**,Buffalo,NY,caxumba
358,Female,**/**/**,Buffalo,NY,cancer
359,Female,**/**/**,Buffalo,NY,caxumba
360,Female,**/**/**,*,NY,hepatite
361,Female,**/**/**,*,NY,dengue
362,Female,**/**/**,*,NY,febre
363,Female,**/**/**,*,NY,hepatite
364,Female,**/**/**,*,NY,febre
365,Female,**/**/**,*,NY,cancer
366,Female,**/**/**,*,NY,cancer
367,Female,**/**/**,*,NY,bronquite
368,Female,**/**/**,*,NY,dengue
369,Female,**/**/**,*,NY,hepatite
370,Female,**/**/**,*,NY,cancer
371,Female,**/**/**,*,NY,dengue
372,Female,**/**/**,*,NY,hepatite
373,Female,**/**/**,*,NY,cancer
374,Female,**/**/**,*,NY,aids
375,Female,**/**/**,*,NY,dengue
376,Female,**/**/**,*,NY,dengue
377,Female,**/**/**,*,NY,aids
378,Female,**/**/**,*,NY,hepatite
379,Female,**/**/**,*,NY,dengue
380,Female,**/**/**,*,NY,bronquite
381,Female,**/**/**,*,NY,hepatite
382,Female,**/**/**,*,NY,aids
383,Female,**/**/**,*,NY,hepatite
384,Female,**/**/**,*,NY,cancer
385,Female,**/**/**,*,NY,cancer
386,Female,**/**/**,*,NY,cancer
387,Female,**/**/**,*,NY,aids
388,Female,**/**/**,*,NY,cancer
389,Female,**/**/**,*,NY,catapora
390,Female,**/**/**,*,NY,cancer
391,Female,**/**/**,*,NY,caxumba
392,Female,**/**/**,*,NY,febre
393,Female,**/**/**,*,NY,hepatite
394,Female,**/**/**,*,NY,febre
395,Female,**/**/**,*,NY,aids
396,Female,**/**/**,*,NY,febre
397,Female,**/**/**,*,NY,febre
398,Female,**/**/**,*,NY,bronquite
399,Female,**/**/**,*,NY,hepatite
400,Female,**/**/**,*,NY,dengue
401,Female,**/**/**,*,NY,caxumba
402,Female,**/**/**,*,NY,cancer
403,Female,**/**/**,*,NY,febre
404,Female,**/**/**,*,NY,caxumba
405,Female,**/**/**,*,NY,hepatite
406,Female,**/**/**,*,NY,cancer
407,Female,**/**/**,*,NY,cancer
408,Female,**/**/**,*,NY,febre
409,Female,**/**/**,*,NY,hepatite
410,Female,**/**/**,*,NY,cancer
411,Female,**/**/**,*,NY,aids
412,Female,**/**/**,*,NY,febre
413,Female,**/**/**,*,NY,bronquite
414,Female,**/**/**,*,NY,catapora
415,Female,**/**/**,*,NY,catapora
416,Female,**/**/**,*,NY,bronquite
417,Female,**/**/**,*,NY,febre
418,Female,**/**/**,*,NY,hepatite
419,Female,**/**/**,*,NY,caxumba
420,Female,**/**/**,Jamaica,NY,catapora
421,Female,**/**/**,Jamaica,NY,cancer
422,Female,**/**/**,Jamaica,NY,catapora
423,Female,**/**/**,Jamaica,NY,cancer
424,Female,**/**/**,Jamaica,NY,cancer
425,Female,**/**/**,Jamaica,NY,hepatite
426,Female,**/**/**,Jamaica,NY,dengue
427,Female,**/**/**,Jamaica,NY,catapora
428,Female,**/**/**,Jamaica,NY,catapora
429,Female,**/**/**,Jamaica,NY,dengue
430,Female,**/**/**,Jamaica,NY,caxumba
431,Female,**/**/**,Jamaica,NY,catapora
432,Female,**/**/**,Jamaica,NY,catapora
433,Female,**/**/**,Jamaica,NY,febre
434,Female,**/**/**,Jamaica,NY,bronquite
435,Female,**/**/**,Jamaica,NY,bronquite
436,Female,**/**/**,Jamaica,NY,febre
437,Female,**/**/**,Jamaica,NY,dengue
438,Female,**/**/**,Jamaica,NY,aids
439,Female,**/**/**,Jamaica,NY,bronquite
440,Female,**/**/**,*,NY,aids
441,Female,**/**/**,*,NY,febre
442,Female,**/**/**,*,NY,hepatite
443,Female,**/**/**,*,NY,cancer
444,Female,**/**/**,*,NY,catapora
445,Female,**/**/**,*,NY,caxumba
446,Female,**/**/**,*,NY,catapora
447,Female,**/**/**,*,NY,hepatite
448,Female,**/**/**,*,NY,caxumba
449,Female,**/**/**,*,NY,caxumba
450,Female,**/**/**,*,NY,aids
451,Female,**/**/**,*,NY,bronquite
452,Female,**/**/**,*,NY,cancer
453,Female,**/**/**,*,NY,aids
454,Female,**/**/**,*,NY,catapora
455,Female,**/**/**,*,NY,bronquite
456,Female,**/**/**,*,NY,dengue
457,Female,**/**/**,*,NY,cancer
458,Female,**/**/**,*,NY,febre
459,Female,**/**/**,*,NY,catapora
460,Female,**/**/2017,New York City,NY,dengue
461,Female,**/**/2017,New York City,NY,hepatite
462,Female,**/**/2017,New York City,NY,catapora
463,Female,**/**/2017,New York City,NY,bronquite
464,Female,**/**/2017,New York City,NY,febre
465,Female,**/**/2017,New York City,NY,cancer
466,Female,**/**/2017,New York City,NY,aids
467,Female,**/**/2017,New York City,NY,catapora
468,Female,**/**/2017,New York City,NY,catapora
469,Female,**/**/2017,New York City,NY,dengue
470,Female,**/**/2017,New York City,NY,hepatite
471,Female,**/**/2017,New York City,NY,caxumba
472,Female,**/**/2017,New York City,NY,catapora
473,Female,**/**/2017,New York City,NY,cancer
474,Female,**/**/2017,New York City,NY,cancer
475,Female,**/**/2017,New York City,NY,cancer
476,Female,**/**/2017,New York City,NY,bronquite
477,Female,**/**/2017,New York City,NY,aids
478,Female,**/**/2017,New York City,NY,dengue
479,Female,**/**/2017,New York City,NY,dengue
480,Female,**/**/2017,New York City,NY,cancer
481,Female,**/**/2017,New York City,NY,cancer
482,Female,**/**/2017,New York City,NY,cancer
483,Female,**/**/2017,New York City,NY,catapora
484,Female,**/**/2017,New York City,NY,dengue
485,Female,**/**/2017,New York City,NY,dengue
486,Female,**/**/2017,New York City,NY,dengue
487,Female,**/**/2017,New York City,NY,hepatite
488,Female,**/**/2017,New York City,NY,dengue
489,Female,**/**/2017,New York City,NY,febre
490,Female,**/**/2017,New York City,NY,bronquite
491,Female,**/**/2017,New York City,NY,caxumba
492,Female,**/**/2017,New York City,NY,caxumba
493,Female,**/**/2017,New York City,NY,bronquite
494,Female,**/**/2017,New York City,NY,hepatite
495,Female,**/**/2017,New York City,NY,cancer
496,Female,**/**/2017,New York City,NY,catapora
497,Female,**/**/2017,New York City,NY,aids
498,Female,**/**/2017,New York City,NY,hepatite
499,Female,**/**/2017,New York City,NY,caxumba
500,Female,**/**/2017,New York City,NY,febre
501,Female,**/**/2017,New York City,NY,catapora
502,Female,**/**/2017,New York City,NY,febre
503,Female,**/**/2017,New York City,NY,cancer
504,Female,**/**/2017,New York City,NY,catapora
505,Female,**/**/2017,New York City,NY,hepatite
506,Female,**/**/2017,New York City,NY,bronquite
507,Female,**/**/2017,New York City,NY,bronquite
508,Female,**/**/2017,New York City,NY,caxumba
509,Female,**/**/2017,New York City,NY,bronquite
510,Female,**/**/2017,New York City,NY,cancer
511,Female,**/**/2017,New York City,NY,catapora
512,Female,**/**/2017,New York City,NY,dengue
513,Female,**/**/2017,New York City,NY,febre
514,Female,**/**/2017,New York City,NY,febre
515,Female,**/**/2017,New York City,NY,cancer
516,Female,**/**/2017,New York City,NY,caxumba
517,Female,**/**/2017,New York City,NY,catapora
518,Female,**/**/2017,New York City,NY,febre
519,Female,**/**/2017,New York City,NY,bronquite
520,Female,**/**/2017,New York City,NY,cancer
521,Female,**/**/2017,New York City,NY,caxumba
522,Female,**/**/2017,New York City,NY,dengue
523,Female,**/**/2017,New York City,NY,catapora
524,Female,**/**/2017,New York City,NY,catapora
525,Female,**/**/2017,New York City,NY,aids
526,Female,**/**/2017,New York City,NY,caxumba
527,Female,**/**/2017,New York City,NY,hepatite
528,Female,**/**/2017,New York City,NY,hepatite
529,Female,**/**/2017,New York City,NY,febre
530,Female,**/**/2017,New York City,NY,bronquite
531,Female,**/**/2017,New York City,NY,hepatite
532,Female,**/**/2017,New York City,NY,aids
533,Female,**/**/2017,New York City,NY,caxumba
534,Female,**/**/2017,New York City,NY,dengue
535,Female,**/**/2017,New York City,NY,dengue
536,Female,**/**/2017,New York City,NY,cancer
537,Female,**/**/2017,New York City,NY,cancer
538,Female,**/**/2017,New York City,NY,hepatite
539,Female,**/**/2017,New York City,NY,febre
540,Female,**/**/2017,New York City,NY,aids
541,Female,**/**/2017,New York City,NY,dengue
542,Female,**/**/2017,New York City,NY,catapora
543,Female,**/**/2017,New York City,NY,catapora
544,Female,**/**/2017,New York City,NY,catapora
545,Female,**/**/2017,New York City,NY,hepatite
546,Female,**/**/2017,New York City,NY,aids
547,Female,**/**/2017,New York City,NY,febre
548,Female,**/**/2017,New York City,NY,dengue
549,Female,**/**/2017,New York City,NY,bronquite
550,Female,**/**/2017,New York City,NY,febre
551,Female,**/**/2017,New York City,NY,febre
552,Female,**/**/2017,New York City,NY,aids
553,Female,**/**/2017,New York City,NY,febre
554,Female,**/**/2017,New York City,NY,aids
555,Female,**/**/2017,New York City,NY,hepatite
556,Female,**/**/2017,New York City,NY,hepatite
557,Female,**/**/2017,New York City,NY,catapora
558,Female,**/**/2017,New York City,NY,cancer
559,Female,**/**/2017,New York City,NY,aids
560,Female,**/**/2017,New York City,NY,dengue
561,Female,**/**/2017,New York City,NY,cancer
562,Female,**/**/2017,New York City,NY,caxumba
563,Female,**/**/2017,New York City,NY,febre
564,Female,**/**/2017,New York City,NY,cancer
565,Female,**/**/2017,New York City,NY,hepatite
566,Female,**/**/2017,New York City,NY,catapora
567,Female,**/**/2017,New York City,NY,cancer
568,Female,**/**/2017,New York City,NY,cancer
569,Female,**/**/2017,New York City,NY,dengue
570,Female,**/**/2017,New York City,NY,aids
571,Female,**/**/2017,New York City,NY,dengue
572,Female,**/**/2017,New York City,NY,febre
573,Female,**/**/2017,New York City,NY,hepatite
574,Female,**/**/2017,New York City,NY,febre
575,Female,**/**/2017,New York City,NY,caxumba
576,Female,**/**/2017,New York City,NY,aids
577,Female,**/**/2017,New York City,NY,aids
578,Female,**/**/2017,New York City,NY,hepatite
579,Female,**/**/2017,New York City,NY,hepatite
580,Female,**/**/**,New York City,NY,aids
581,Female,**/**/**,New York City,NY,caxumba
582,Female,**/**/**,New York City,NY,febre
583,Female,**/**/**,New York City,NY,febre
584,Female,**/**/**,New York City,NY,bronquite
585,Female,**/**/**,New York City,NY,dengue
586,Female,**/**/**,New York City,NY,bronquite
587,Female,**/**/**,New York City,NY,hepatite
588,Female,**/**/**,New York City,NY,febre
589,Female,**/**/**,New York City,NY,dengue
590,Female,**/**/**,New York City,NY,caxumba
591,Female,**/**/**,New York City,NY,catapora
592,Female,**/**/**,New York City,NY,cancer
593,Female,**/**/**,New York City,NY,catapora
594,Female,**/**/**,New York City,NY,cancer
595,Female,**/**/**,New York City,NY,caxumba
596,Female,**/**/**,New York City,NY,aids
597,Female,**/**/**,New York City,NY,catapora
598,Female,**/**/**,New York City,NY,hepatite
599,Female,**/**/**,New York City,NY,cancer
600,Female,**/**/2018,New York City,NY,aids
601,Female,**/**/2018,New York City,NY,catapora
602,Female,**/**/2018,New York City,NY,catapora
603,Female,**/**/2018,New York City,NY,cancer
604,Female,**/**/2018,New York City,NY,caxumba
605,Female,**/**/2018,New York City,NY,bronquite
606,Female,**/**/2018,New York City,NY,caxumba
607,Female,**/**/2018,New York City,NY,febre
608,Female,**/**/2018,New York City,NY,catapora
609,Female,**/**/2018,New York City,NY,hepatite
610,Female,**/**/2018,New York City,NY,caxumba
611,Female,**/**/2018,New York City,NY,febre
612,Female,**/**/2018,New York City,NY,catapora
613,Female,**/**/2018,New York City,NY,aids
614,Female,**/**/2018,New York City,NY,dengue
615,Female,**/**/2018,New York City,NY,caxumba
616,Female,**/**/2018,New York City,NY,caxumba
617,Female,**/**/2018,New York City,NY,bronquite
618,Female,**/**/2018,New York City,NY,febre
619,Female,**/**/2018,New York City,NY,febre
620,Female,**/**/**,*,NY,bronquite
621,Female,**/**/**,*,NY,catapora
622,Female,**/**/**,*,NY,bronquite
623,Female,**/**/**,*,NY,aids
624,Female,**/**/**,*,NY,aids
625,Female,**/**/**,*,NY,cancer
626,Female,**/**/**,*,NY,catapora
627,Female,**/**/**,*,NY,caxumba
628,Female,**/**/**,*,NY,hepatite
629,Female,**/**/**,*,NY,cancer
630,Female,**/**/**,*,NY,caxumba
631,Female,**/**/**,*,NY,hepatite
632,Female,**/**/**,*,NY,hepatite
633,Female,**/**/**,*,NY,cancer
634,Female,**/**/**,*,NY,febre
635,Female,**/**/**,*,NY,bronquite
636,Female,**/**/**,*,NY,aids
637,Female,**/**/**,*,NY,cancer
638,Female,**/**/**,*,NY,dengue
639,Female,**/**/**,*,NY,caxumba
640,Female,**/**/**,*,NY,bronquite
641,Female,**/**/**,*,NY,catapora
642,Female,**/**/**,*,NY,dengue
643,Female,**/**/**,*,NY,bronquite
644,Female,**/**/**,*,NY,bronquite
645,Female,**/**/**,*,NY,catapora
646,Female,**/**/**,*,NY,dengue
647,Female,**/**/**,*,NY,dengue
648,Female,**/**/**,*,NY,catapora
649,Female,**/**/**,*,NY,catapora
650,Female,**/**/**,*,NY,hepatite
651,Female,**/**/**,*,NY,febre
652,Female,**/**/**,*,NY,bronquite
653,Female,**/**/**,*,NY,bronquite
654,Female,**/**/**,*,NY,bronquite
655,Female,**/**/**,*,NY,catapora
656,Female,**/**/**,*,NY,aids
657,Female,**/**/**,*,NY,bronquite
658,Female,**/**/**,*,NY,febre
659,Female,**/**/**,*,NY,febre
660,Female,**/**/**,Rochester,NY,febre
661,Female,**/**/**,Rochester,NY,bronquite
662,Female,**/**/**,Rochester,NY,catapora
663,Female,**/**/**,Rochester,NY,dengue
664,Female,**/**/**,Rochester,NY,hepatite
665,Female,**/**/**,Rochester,NY,dengue
666,Female,**/**/**,Rochester,NY,dengue
667,Female,**/**/**,Rochester,NY,caxumba
668,Female,**/**/**,Rochester,NY,catapora
669,Female,**/**/**,Rochester,NY,febre
670,Female,**/**/**,Rochester,NY,catapora
671,Female,**/**/**,Rochester,NY,aids
672,Female,**/**/**,Rochester,NY,aids
673,Female,**/**/**,Rochester,NY,febre
674,Female,**/**/**,Rochester,NY,caxumba
675,Female,**/**/**,Rochester,NY,dengue
676,Female,**/**/**,Rochester,NY,catapora
677,Female,**/**/**,Rochester,NY,aids
678,Female,**/**/**,Rochester,NY,cancer
679,Female,**/**/**,Rochester,NY,aids
680,Female,**/**/**,*,NY,bronquite
681,Female,**/**/**,*,NY,caxumba
682,Female,**/**/**,*,NY,caxumba
683,Female,**/**/**,*,NY,febre
684,Female,**/**/**,*,NY,aids
685,Female,**/**/**,*,NY,caxumba
686,Female,**/**/**,*,NY,hepatite
687,Female,**/**/**,*,NY,catapora
688,Female,**/**/**,*,NY,dengue
689,Female,**/**/**,*,NY,catapora
690,Female,**/**/**,*,NY,dengue
691,Female,**/**/**,*,NY,febre
692,Female,**/**/**,*,NY,catapora
693,Female,**/**/**,*,NY,aids
694,Female,**/**/**,*,NY,hepatite
695,Female,**/**/**,*,NY,cancer
696,Female,**/**/**,*,NY,aids
697,Female,**/**/**,*,NY,dengue
698,Female,**/**/**,*,NY,cancer
699,Female,**/**/**,*,NY,febre
700,Female,**/**/**,*,NY,febre
701,Female,**/**/**,*,NY,aids
702,Female,**/**/**,*,NY,febre
703,Female,**/**/**,*,NY,febre
704,Female,**/**/**,*,NY,aids
705,Female,**/**/**,*,NY,caxumba
706,Female,**/**/**,*,NY,catapora
707,Female,**/**/**,*,NY,bronquite
708,Female,**/**/**,*,NY,hepatite
709,Female,**/**/**,*,NY,aids
710,Female,**/**/**,*,NY,febre
711,Female,**/**/**,*,NY,catapora
712,Female,**/**/**,*,NY,caxumba
713,Female,**/**/**,*,NY,catapora
714,Female,**/**/**,*,NY,dengue
715,Female,**/**/**,*,NY,aids
716,Female,**/**/**,*,NY,bronquite
717,Female,**/**/**,*,NY,hepatite
718,Female,**/**/**,*,NY,hepatite
719,Female,**/**/**,*,NY,dengue
720,Female,**/**/**,*,NY,bronquite
721,Female,**/**/**,*,NY,aids
722,Female,**/**/**,*,NY,hepatite
723,Female,**/**/**,*,NY,hepatite
724,Female,**/**/**,*,NY,cancer
725,Female,**/**/**,*,NY,caxumba
726,Female,**/**/**,*,NY,febre
727,Female,**/**/**,*,NY,febre
728,Female,**/**/**,*,NY,febre
729,Female,**/**/**,*,NY,bronquite
730,Female,**/**/**,*,NY,cancer
731,Female,**/**/**,*,NY,dengue
732,Female,**/**/**,*,NY,bronquite
733,Female,**/**/**,*,NY,bronquite
734,Female,**/**/**,*,NY,febre
735,Female,**/**/**,*,NY,caxumba
736,Female,**/**/**,*,NY,aids
737,Female,**/**/**,*,NY,dengue
738,Female,**/**/**,*,NY,aids
739,Female,**/**/**,*,NY,bronquite
740,Female,**/**/**,*,NY,bronquite
741,Female,**/**/**,*,NY,hepatite
742,Female,**/**/**,*,NY,catapora
743,Female,**/**/**,*,NY,catapora
744,Female,**/**/**,*,NY,bronquite
745,Female,**/**/**,*,NY,febre
746,Female,**/**/**,*,NY,bronquite
747,Female,**/**/**,*,NY,dengue
748,Female,**/**/**,*,NY,bronquite
749,Female,**/**/**,*,NY,caxumba
750,Female,**/**/**,*,NY,hepatite
751,Female,**/**/**,*,NY,hepatite
752,Female,**/**/**,*,NY,aids
753,Female,**/**/**,*,NY,catapora
754,Female,**/**/**,*,NY,caxumba
755,Female,**/**/**,*,NY,caxumba
756,Female,**/**/**,*,NY,catapora
757,Female,**/**/**,*,NY,aids
758,Female,**/**/**,*,NY,hepatite
759,Female,**/**/**,*,NY,catapora
760,Female,**/**/**,*,*,bronquite
761,Female,**/**/**,*,*,caxumba
762,Female,**/**/**,*,*,hepatite
763,Female,**/**/**,*,*,hepatite
764,Female,**/**/**,*,*,caxumba
765,Female,**/**/**,*,*,febre
766,Female,**/**/**,*,*,dengue
767,Female,**/**/**,*,*,aids
768,Female,**/**/**,*,*,aids
769,Female,**/**/**,*,*,cancer
770,Female,**/**/**,*,*,hepatite
771,Female,**/**/**,*,*,febre
772,Female,**/**/**,*,*,caxumba
773,Female,**/**/**,*,*,dengue
774,Female,**/**/**,*,*,catapora
775,Female,**/**/**,*,*,hepatite
776,Female,**/**/**,*,*,febre
777,Female,**/**/**,*,*,febre
778,Female,**/**/**,*,*,caxumba
779,Female,**/**/**,*,*,cancer
780,Female,**/**/**,*,WA,cancer
781,Female,**/**/**,*,WA,cancer
782,Female,**/**/**,*,WA,aids
783,Female,**/**/**,*,WA,aids
784,Female,**/**/**,*,WA,febre
785,Female,**/**/**,*,WA,cancer
786,Female,**/**/**,*,WA,bronquite
787,Female,**/**/**,*,WA,bronquite
788,Female,**/**/**,*,WA,febre
789,Female,**/**/**,*,WA,catapora
790,Female,**/**/**,*,WA,caxumba
791,Female,**/**/**,*,WA,caxumba
792,Female,**/**/**,*,WA,caxumba
793,Female,**/**/**,*,WA,catapora
794,Female,**/**/**,*,WA,catapora
795,Female,**/**/**,*,WA,hepatite
796,Female,**/**/**,*,WA,hepatite
797,Female,**/**/**,*,WA,febre
798,Female,**/**/**,*,WA,dengue
799,Female,**/**/**,*,WA,aids
800,Female,**/**/2017,Seattle,WA,aids
801,Female,**/**/2017,Seattle,WA,aids
802,Female,**/**/2017,Seattle,WA,catapora
803,Female,**/**/2017,Seattle,WA,hepatite
804,Female,**/**/2017,Seattle,WA,cancer
805,Female,**/**/2017,Seattle,WA,cancer
806,Female,**/**/2017,Seattle,WA,cancer
807,Female,**/**/2017,Seattle,WA,caxumba
808,Female,**/**/2017,Seattle,WA,catapora
809,Female,**/**/2017,Seattle,WA,hepatite
810,Female,**/**/2017,Seattle,WA,hepatite
811,Female,**/**/2017,Seattle,WA,aids
812,Female,**/**/2017,Seattle,WA,catapora
813,Female,**/**/2017,Seattle,WA,hepatite
814,Female,**/**/2017,Seattle,WA,catapora
815,Female,**/**/2017,Seattle,WA,cancer
816,Female,**/**/2017,Seattle,WA,febre
817,Female,**/**/2017,Seattle,WA,caxumba
818,Female,**/**/2017,Seattle,WA,caxumba
819,Female,**/**/2017,Seattle,WA,hepatite
820,Female,**/**/2017,Seattle,WA,hepatite
821,Female,**/**/2017,Seattle,WA,febre
822,Female,**/**/2017,Seattle,WA,caxumba
823,Female,**/**/2017,Seattle,WA,hepatite
824,Female,**/**/2017,Seattle,WA,catapora
825,Female,**/**/2017,Seattle,WA,bronquite
826,Female,**/**/2017,Seattle,WA,dengue
827,Female,**/**/2017,Seattle,WA,cancer
828,Female,**/**/2017,Seattle,WA,aids
829,Female,**/**/2017,Seattle,WA,cancer
830,Female,**/**/2017,Seattle,WA,aids
831,Female,**/**/2017,Seattle,WA,aids
832,Female,**/**/2017,Seattle,WA,dengue
833,Female,**/**/2017,Seattle,WA,cancer
834,Female,**/**/2017,Seattle,WA,febre
835,Female,**/**/2017,Seattle,WA,bronquite
836,Female,**/**/2017,Seattle,WA,catapora
837,Female,**/**/2017,Seattle,WA,bronquite
838,Female,**/**/2017,Seattle,WA,febre
839,Female,**/**/2017,Seattle,WA,caxumba
840,Female,**/**/**,Seattle,WA,catapora
841,Female,**/**/**,Seattle,WA,dengue
842,Female,**/**/**,Seattle,WA,hepatite
843,Female,**/**/**,Seattle,WA,febre
844,Female,**/**/**,Seattle,WA,catapora
845,Female,**/**/**,Seattle,WA,febre
846,Female,**/**/**,Seattle,WA,bronquite
847,Female,**/**/**,Seattle,WA,bronquite
848,Female,**/**/**,Seattle,WA,bronquite
849,Female,**/**/**,Seattle,WA,bronquite
850,Female,**/**/**,Seattle,WA,caxumba
851,Female,**/**/**,Seattle,WA,aids
852,Female,**/**/**,Seattle,WA,cancer
853,Female,**/**/**,Seattle,WA,dengue
854,Female,**/**/**,Seattle,WA,bronquite
855,Female,**/**/**,Seattle,WA,hepatite
856,Female,**/**/**,Seattle,WA,aids
857,Female,**/**/**,Seattle,WA,febre
858,Female,**/**/**,Seattle,WA,aids
859,Female,**/**/**,Seattle,WA,bronquite
860,Female,**/**/**,*,WA,hepatite
861,Female,**/**/**,*,WA,caxumba
862,Female,**/**/**,*,WA,aids
863,Female,**/**/**,*,WA,catapora
864,Female,**/**/**,*,WA,cancer
865,Female,**/**/**,*,WA,cancer
866,Female,**/**/**,*,WA,aids
867,Female,**/**/**,*,WA,caxumba
868,Female,**/**/**,*,WA,cancer
869,Female,**/**/**,*,WA,aids
870,Female,**/**/**,*,WA,dengue
871,Female,**/**/**,*,WA,cancer
872,Female,**/**/**,*,WA,dengue
873,Female,**/**/**,*,WA,bronquite
874,Female,**/**/**,*,WA,aids
875,Female,**/**/**,*,WA,aids
876,Female,**/**/**,*,WA,catapora
877,Female,**/**/**,*,WA,aids
878,Female,**/**/**,*,WA,hepatite
879,Female,**/**/**,*,WA,aids
880,Female,**/**/**,Spokane,WA,dengue
881,Female,**/**/**,Spokane,WA,febre
882,Female,**/**/**,Spokane,WA,aids
883,Female,**/**/**,Spokane,WA,hepatite
884,Female,**/**/**,Spokane,WA,hepatite
885,Female,**/**/**,Spokane,WA,caxumba
886,Female,**/**/**,Spokane,WA,cancer
887,Female,**/**/**,Spokane,WA,aids
888,Female,**/**/**,Spokane,WA,dengue
889,Female,**/**/**,Spokane,WA,dengue
890,Female,**/**/**,Spokane,WA,catapora
891,Female,**/**/**,Spokane,WA,dengue
892,Female,**/**/**,Spokane,WA,catapora
893,Female,**/**/**,Spokane,WA,hepatite
894,Female,**/**/**,Spokane,WA,caxumba
895,Female,**/**/**,Spokane,WA,hepatite
896,Female,**/**/**,Spokane,WA,hepatite
897,Female,**/**/**,Spokane,WA,catapora
898,Female,**/**/**,Spokane,WA,dengue
899,Female,**/**/**,Spokane,WA,hepatite
900,Female,**/**/**,*,WA,catapora
901,Female,**/**/**,*,WA,dengue
902,Female,**/**/**,*,WA,aids
903,Female,**/**/**,*,WA,hepatite
904,Female,**/**/**,*,WA,hepatite
905,Female,**/**/**,*,WA,febre
906,Female,**/**/**,*,WA,cancer
907,Female,**/**/**,*,WA,dengue
908,Female,**/**/**,*,WA,hepatite
909,Female,**/**/**,*,WA,aids
910,Female,**/**/**,*,WA,cancer
911,Female,**/**/**,*,WA,bronquite
912,Female,**/**/**,*,WA,febre
913,Female,**/**/**,*,WA,catapora
914,Female,**/**/**,*,WA,catapora
915,Female,**/**/**,*,WA,hepatite
916,Female,**/**/**,*,WA,dengue
917,Female,**/**/**,*,WA,bronquite
918,Female,**/**/**,*,WA,catapora
919,Female,**/**/**,*,WA,cancer
920,Female,**/**/**,Tacoma,WA,dengue
921,Female,**/**/**,Tacoma,WA,caxumba
922,Female,**/**/**,Tacoma,WA,hepatite
923,Female,**/**/**,Tacoma,WA,febre
924,Female,**/**/**,Tacoma,WA,catapora
925,Female,**/**/**,Tacoma,WA,hepatite
926,Female,**/**/**,Tacoma,WA,hepatite
927,Female,**/**/**,Tacoma,WA,bronquite
928,Female,**/**/**,Tacoma,WA,cancer
929,Female,**/**/**,Tacoma,WA,hepatite
930,Female,**/**/**,Tacoma,WA,dengue
931,Female,**/**/**,Tacoma,WA,cancer
932,Female,**/**/**,Tacoma,WA,hepatite
933,Female,**/**/**,Tacoma,WA,catapora
934,Female,**/**/**,Tacoma,WA,cancer
935,Female,**/**/**,Tacoma,WA,aids
936,Female,**/**/**,Tacoma,WA,febre
937,Female,**/**/**,Tacoma,WA,aids
938,Female,**/**/**,Tacoma,WA,hepatite
939,Female,**/**/**,Tacoma,WA,febre
940,Female,**/**/**,*,WA,catapora
941,Female,**/**/**,*,WA,cancer
942,Female,**/**/**,*,WA,bronquite
943,Female,**/**/**,*,WA,caxumba
944,Female,**/**/**,*,WA,dengue
945,Female,**/**/**,*,WA,febre
946,Female,**/**/**,*,WA,catapora
947,Female,**/**/**,*,WA,cancer
948,Female,**/**/**,*,WA,hepatite
949,Female,**/**/**,*,WA,bronquite
950,Female,**/**/**,*,WA,febre
951,Female,**/**/**,*,WA,catapora
952,Female,**/**/**,*,WA,bronquite
953,Female,**/**/**,*,WA,dengue
954,Female,**/**/**,*,WA,aids
955,Female,**/**/**,*,WA,cancer
956,Female,**/**/**,*,WA,hepatite
957,Female,**/**/**,*,WA,aids
958,Female,**/**/**,*,WA,catapora
959,Female,**/**/**,*,WA,aids
960,*,**/**/**,*,*,aids
961,*,**/**/**,*,*,catapora
962,*,**/**/**,*,*,hepatite
963,*,**/**/**,*,*,caxumba
964,*,**/**/**,*,*,catapora
965,*,**/**/**,*,*,aids
966,*,**/**/**,*,*,aids
967,*,**/**/**,*,*,caxumba
968,*,**/**/**,*,*,hepatite
969,*,**/**/**,*,*,cancer
970,*,**/**/**,*,*,hepatite
971,*,**/**/**,*,*,febre
972,*,**/**/**,*,*,catapora
973,*,**/**/**,*,*,aids
974,*,**/**/**,*,*,hepatite
975,*,**/**/**,*,*,bronquite
976,*,**/**/**,*,*,aids
977,*,**/**/**,*,*,catapora
978,*,**/**/**,*,*,bronquite
979,*,**/**/**,*,*,catapora
980,Male,**/**/**,*,KS,dengue
981,Male,**/**/**,*,KS,dengue
982,Male,**/**/**,*,KS,aids
983,Male,**/**/**,*,KS,caxumba
984,Male,**/**/**,*,KS,hepatite
985,Male,**/**/**,*,KS,febre
986,Male,**/**/**,*,KS,hepatite
987,Male,**/**/**,*,KS,catapora
988,Male,**/**/**,*,KS,catapora
989,Male,**/**/**,*,KS,bronquite
990,Male,**/**/**,*,KS,febre
991,Male,**/**/**,*,KS,catapora
992,Male,**/**/**,*,KS,hepatite
993,Male,**/**/**,*,KS,catapora
994,Male,**/**/**,*,KS,catapora
995,Male,**/**/**,*,KS,hepatite
996,Male,**/**/**,*,KS,cancer
997,Male,**/**/**,*,KS,bronquite
998,Male,**/**/**,*,KS,cancer
999,Male,**/**/**,*,KS,catapora
1000,Male,**/**/**,Shawnee Mission,KS,catapora
1001,Male,**/**/**,Shawnee Mission,KS,cancer
1002,Male,**/**/**,Shawnee Mission,KS,aids
1003,Male,**/**/**,Shawnee Mission,KS,hepatite
1004,Male,**/**/**,Shawnee Mission,KS,dengue
1005,Male,**/**/**,Shawnee Mission,KS,cancer
1006,Male,**/**/**,Shawnee Mission,KS,bronquite
1007,Male,**/**/**,Shawnee Mission,KS,catapora
1008,Male,**/**/**,Shawnee Mission,KS,bronquite
1009,Male,**/**/**,Shawnee Mission,KS,catapora
1010,Male,**/**/**,Shawnee Mission,KS,cancer
1011,Male,**/**/**,Shawnee Mission,KS,catapora
1012,Male,**/**/**,Shawnee Mission,KS,dengue
1013,Male,**/**/**,Shawnee Mission,KS,caxumba
1014,Male,**/**/**,Shawnee Mission,KS,bronquite
1015,Male,**/**/**,Shawnee Mission,KS,cancer
1016,Male,**/**/**,Shawnee Mission,KS,cancer
1017,Male,**/**/**,Shawnee Mission,KS,hepatite
1018,Male,**/**/**,Shawnee Mission,KS,caxumba
1019,Male,**/**/**,Shawnee Mission,KS,catapora
1020,Male,**/**/**,*,KS,hepatite
1021,Male,**/**/**,*,KS,aids
1022,Male,**/**/**,*,KS,catapora
1023,Male,**/**/**,*,KS,caxumba
1024,Male,**/**/**,*,KS,cancer
1025,Male,**/**/**,*,KS,hepatite
1026,Male,**/**/**,*,KS,hepatite
1027,Male,**/**/**,*,KS,febre
1028,Male,**/**/**,*,KS,cancer
1029,Male,**/**/**,*,KS,aids
1030,Male,**/**/**,*,KS,cancer
1031,Male,**/**/**,*,KS,febre
1032,Male,**/**/**,*,KS,cancer
1033,Male,**/**/**,*,KS,catapora
1034,Male,**/**/**,*,KS,bronquite
1035,Male,**/**/**,*,KS,aids
1036,Male,**/**/**,*,KS,dengue
1037,Male,**/**/**,*,KS,dengue
1038,Male,**/**/**,*,KS,cancer
1039,Male,**/**/**,*,KS,catapora
1040,Male,**/**/**,Topeka,KS,dengue
1041,Male,**/**/**,Topeka,KS,febre
1042,Male,**/**/**,Topeka,KS,catapora
1043,Male,**/**/**,Topeka,KS,catapora
1044,Male,**/**/**,Topeka,KS,hepatite
1045,Male,**/**/**,Topeka,KS,caxumba
1046,Male,**/**/**,Topeka,KS,bronquite
1047,Male,**/**/**,Topeka,KS,bronquite
1048,Male,**/**/**,Topeka,KS,catapora
1049,Male,**/**/**,Topeka,KS,dengue
1050,Male,**/**/**,Topeka,KS,catapora
1051,Male,**/**/**,Topeka,KS,febre
1052,Male,**/**/**,Topeka,KS,cancer
1053,Male,**/**/**,Topeka,KS,febre
1054,Male,**/**/**,Topeka,KS,cancer
1055,Male,**/**/**,Topeka,KS,febre
1056,Male,**/**/**,Topeka,KS,bronquite
1057,Male,**/**/**,Topeka,KS,dengue
1058,Male,**/**/**,Topeka,KS,aids
1059,Male,**/**/**,Topeka,KS,hepatite
1060,Male,**/**/**,*,KS,dengue
1061,Male,**/**/**,*,KS,cancer
1062,Male,**/**/**,*,KS,febre
1063,Male,**/**/**,*,KS,caxumba
1064,Male,**/**/**,*,KS,febre
1065,Male,**/**/**,*,KS,caxumba
1066,Male,**/**/**,*,KS,bronquite
1067,Male,**/**/**,*,KS,dengue
1068,Male,**/**/**,*,KS,febre
1069,Male,**/**/**,*,KS,hepatite
1070,Male,**/**/**,*,KS,dengue
1071,Male,**/**/**,*,KS,dengue
1072,Male,**/**/**,*,KS,aids
1073,Male,**/**/**,*,KS,dengue
1074,Male,**/**/**,*,KS,cancer
1075,Male,**/**/**,*,KS,hepatite
1076,Male,**/**/**,*,KS,febre
1077,Male,**/**/**,*,KS,aids
1078,Male,**/**/**,*,KS,febre
1079,Male,**/**/**,*,KS,febre
1080,Male,**/**/**,Wichita,KS,catapora
1081,Male,**/**/**,Wichita,KS,catapora
1082,Male,**/**/**,Wichita,KS,catapora
1083,Male,**/**/**,Wichita,KS,cancer
1084,Male,**/**/**,Wichita,KS,caxumba
1085,Male,**/**/**,Wichita,KS,catapora
1086,Male,**/**/**,Wichita,KS,dengue
1087,Male,**/**/**,Wichita,KS,hepatite
1088,Male,**/**/**,Wichita,KS,cancer
1089,Male,**/**/**,Wichita,KS,cancer
1090,Male,**/**/**,Wichita,KS,febre
1091,Male,**/**/**,Wichita,KS,catapora
1092,Male,**/**/**,Wichita,KS,hepatite
1093,Male,**/**/**,Wichita,KS,catapora
1094,Male,**/**/**,Wichita,KS,aids
1095,Male,**/**/**,Wichita,KS,febre
1096,Male,**/**/**,Wichita,KS,cancer
1097,Male,**/**/**,Wichita,KS,caxumba
1098,Male,**/**/**,Wichita,KS,cancer
1099,Male,**/**/**,Wichita,KS,catapora
1100,Male,**/**/**,*,*,bronquite
1101,Male,**/**/**,*,*,aids
1102,Male,**/**/**,*,*,aids
1103,Male,**/**/**,*,*,caxumba
1104,Male,**/**/**,*,*,hepatite
1105,Male,**/**/**,*,*,aids
1106,Male,**/**/**,*,*,hepatite
1107,Male,**/**/**,*,*,dengue
1108,Male,**/**/**,*,*,aids
1109,Male,**/**/**,*,*,dengue
1110,Male,**/**/**,*,*,febre
1111,Male,**/**/**,*,*,bronquite
1112,Male,**/**/**,*,*,catapora
1113,Male,**/**/**,*,*,febre
1114,Male,**/**/**,*,*,dengue
1115,Male,**/**/**,*,*,bronquite
1116,Male,**/**/**,*,*,caxumba
1117,Male,**/**/**,*,*,bronquite
1118,Male,**/**/**,*,*,febre
1119,Male,**/**/**,*,*,catapora
1120,Male,**/**/**,*,NJ,catapora
1121,Male,**/**/**,*,NJ,bronquite
1122,Male,**/**/**,*,NJ,cancer
1123,Male,**/**/**,*,NJ,febre
1124,Male,**/**/**,*,NJ,aids
1125,Male,**/**/**,*,NJ,bronquite
1126,Male,**/**/**,*,NJ,caxumba
1127,Male,**/**/**,*,NJ,febre
1128,Male,**/**/**,*,NJ,dengue
1129,Male,**/**/**,*,NJ,caxumba
1130,Male,**/**/**,*,NJ,febre
1131,Male,**/**/**,*,NJ,caxumba
1132,Male,**/**/**,*,NJ,caxumba
1133,Male,**/**/**,*,NJ,hepatite
1134,Male,**/**/**,*,NJ,cancer
1135,Male,**/**/**,*,NJ,catapora
1136,Male,**/**/**,*,NJ,caxumba
1137,Male,**/**/**,*,NJ,dengue
1138,Male,**/**/**,*,NJ,febre
1139,Male,**/**/**,*,NJ,aids
1140,Male,**/**/**,*,*,dengue
1141,Male,**/**/**,*,*,caxumba
1142,Male,**/**/**,*,*,catapora
1143,Male,**/**/**,*,*,hepatite
1144,Male,**/**/**,*,*,dengue
1145,Male,**/**/**,*,*,dengue
1146,Male,**/**/**,*,*,catapora
1147,Male,**/**/**,*,*,hepatite
1148,Male,**/**/**,*,*,cancer
1149,Male,**/**/**,*,*,catapora
1150,Male,**/**/**,*,*,hepatite
1151,Male,**/**/**,*,*,hepatite
1152,Male,**/**/**,*,*,febre
1153,Male,**/**/**,*,*,cancer
1154,Male,**/**/**,*,*,dengue
1155,Male,**/**/**,*,*,febre
1156,Male,**/**/**,*,*,febre
1157,Male,**/**/**,*,*,hepatite
1158,Male,**/**/**,*,*,catapora
1159,Male,**/**/**,*,*,bronquite
1160,Male,**/**/2017,Albany,NY,caxumba
1161,Male,**/**/2017,Albany,NY,catapora
1162,Male,**/**/2017,Albany,NY,caxumba
1163,Male,**/**/2017,Albany,NY,dengue
1164,Male,**/**/2017,Albany,NY,aids
1165,Male,**/**/2017,Albany,NY,bronquite
1166,Male,**/**/2017,Albany,NY,dengue
1167,Male,**/**/2017,Albany,NY,dengue
1168,Male,**/**/2017,Albany,NY,hepatite
1169,Male,**/**/2017,Albany,NY,catapora
1170,Male,**/**/2017,Albany,NY,febre
1171,Male,**/**/2017,Albany,NY,catapora
1172,Male,**/**/2017,Albany,NY,bronquite
1173,Male,**/**/2017,Albany,NY,caxumba
1174,Male,**/**/2017,Albany,NY,hepatite
1175,Male,**/**/2017,Albany,NY,hepatite
1176,Male,**/**/2017,Albany,NY,hepatite
1177,Male,**/**/2017,Albany,NY,hepatite
1178,Male,**/**/2017,Albany,NY,hepatite
1179,Male,**/**/2017,Albany,NY,cancer
1180,Male,**/**/**,Albany,NY,aids
1181,Male,**/**/**,Albany,NY,caxumba
1182,Male,**/**/**,Albany,NY,cancer
1183,Male,**/**/**,Albany,NY,bronquite
1184,Male,**/**/**,Albany,NY,cancer
1185,Male,**/**/**,Albany,NY,hepatite
1186,Male,**/**/**,Albany,NY,catapora
1187,Male,**/**/**,Albany,NY,dengue
1188,Male,**/**/**,Albany,NY,catapora
1189,Male,**/**/**,Albany,NY,catapora
1190,Male,**/**/**,Albany,NY,catapora
1191,Male,**/**/**,Albany,NY,cancer
1192,Male,**/**/**,Albany,NY,dengue
1193,Male,**/**/**,Albany,NY,caxumba
1194,Male,**/**/**,Albany,NY,dengue
1195,Male,**/**/**,Albany,NY,febre
1196,Male,**/**/**,Albany,NY,catapora
1197,Male,**/**/**,Albany,NY,cancer
1198,Male,**/**/**,Albany,NY,dengue
1199,Male,**/**/**,Albany,NY,cancer
1200,Male,**/**/**,*,NY,febre
1201,Male,**/**/**,*,NY,bronquite
1202,Male,**/**/**,*,NY,bronquite
1203,Male,**/**/**,*,NY,caxumba
1204,Male,**/**/**,*,NY,aids
1205,Male,**/**/**,*,NY,catapora
1206,Male,**/**/**,*,NY,cancer
1207,Male,**/**/**,*,NY,catapora
1208,Male,**/**/**,*,NY,catapora
1209,Male,**/**/**,*,NY,cancer
1210,Male,**/**/**,*,NY,dengue
1211,Male,**/**/**,*,NY,catapora
1212,Male,**/**/**,*,NY,aids
1213,Male,**/**/**,*,NY,caxumba
1214,Male,**/**/**,*,NY,cancer
1215,Male,**/**/**,*,NY,aids
1216,Male,**/**/**,*,NY,bronquite
1217,Male,**/**/**,*,NY,dengue
1218,Male,**/**/**,*,NY,dengue
1219,Male,**/**/**,*,NY,hepatite
1220,Male,**/**/**,*,NY,bronquite
1221,Male,**/**/**,*,NY,hepatite
1222,Male,**/**/**,*,NY,dengue
1223,Male,**/**/**,*,NY,bronquite
1224,Male,**/**/**,*,NY,dengue
1225,Male,**/**/**,*,NY,hepatite
1226,Male,**/**/**,*,NY,bronquite
1227,Male,**/**/**,*,NY,dengue
1228,Male,**/**/**,*,NY,hepatite
1229,Male,**/**/**,*,NY,caxumba
1230,Male,**/**/**,*,NY,hepatite
1231,Male,**/**/**,*,NY,febre
1232,Male,**/**/**,*,NY,hepatite
1233,Male,**/**/**,*,NY,aids
1234,Male,**/**/**,*,NY,febre
1235,Male,**/**/**,*,NY,catapora
1236,Male,**/**/**,*,NY,febre
1237,Male,**/**/**,*,NY,febre
1238,Male,**/**/**,*,NY,aids
1239,Male,**/**/**,*,NY,cancer
1240,Male,**/**/2017,Brooklyn,NY,catapora
1241,Male,**/**/2017,Brooklyn,NY,cancer
1242,Male,**/**/2017,Brooklyn,NY,caxumba
1243,Male,**/**/2017,Brooklyn,NY,aids
1244,Male,**/**/2017,Brooklyn,NY,caxumba
1245,Male,**/**/2017,Brooklyn,NY,caxumba
1246,Male,**/**/2017,Brooklyn,NY,catapora
1247,Male,**/**/2017,Brooklyn,NY,aids
1248,Male,**/**/2017,Brooklyn,NY,febre
1249,Male,**/**/2017,Brooklyn,NY,caxumba
1250,Male,**/**/2017,Brooklyn,NY,catapora
1251,Male,**/**/2017,Brooklyn,NY,dengue
1252,Male,**/**/2017,Brooklyn,NY,bronquite
1253,Male,**/**/2017,Brooklyn,NY,catapora
1254,Male,**/**/2017,Brooklyn,NY,dengue
1255,Male,**/**/2017,Brooklyn,NY,caxumba
1256,Male,**/**/2017,Brooklyn,NY,aids
1257,Male,**/**/2017,Brooklyn,NY,hepatite
1258,Male,**/**/2017,Brooklyn,NY,febre
1259,Male,**/**/2017,Brooklyn,NY,caxumba
1260,Male,**/**/2017,Brooklyn,NY,aids
1261,Male,**/**/2017,Brooklyn,NY,hepatite
1262,Male,**/**/2017,Brooklyn,NY,febre
1263,Male,**/**/2017,Brooklyn,NY,bronquite
1264,Male,**/**/2017,Brooklyn,NY,catapora
1265,Male,**/**/2017,Brooklyn,NY,dengue
1266,Male,**/**/2017,Brooklyn,NY,aids
1267,Male,**/**/2017,Brooklyn,NY,febre
1268,Male,**/**/2017,Brooklyn,NY,febre
1269,Male,**/**/2017,Brooklyn,NY,catapora
1270,Male,**/**/2017,Brooklyn,NY,hepatite
1271,Male,**/**/2017,Brooklyn,NY,aids
1272,Male,**/**/2017,Brooklyn,NY,aids
1273,Male,**/**/2017,Brooklyn,NY,hepatite
1274,Male,**/**/2017,Brooklyn,NY,caxumba
1275,Male,**/**/2017,Brooklyn,NY,hepatite
1276,Male,**/**/2017,Brooklyn,NY,cancer
1277,Male,**/**/2017,Brooklyn,NY,aids
1278,Male,**/**/2017,Brooklyn,NY,catapora
1279,Male,**/**/2017,Brooklyn,NY,hepatite
1280,Male,**/**/**,*,NY,catapora
1281,Male,**/**/**,*,NY,cancer
1282,Male,**/**/**,*,NY,bronquite
1283,Male,**/**/**,*,NY,cancer
1284,Male,**/**/**,*,NY,bronquite
1285,Male,**/**/**,*,NY,cancer
1286,Male,**/**/**,*,NY,hepatite
1287,Male,**/**/**,*,NY,febre
1288,Male,**/**/**,*,NY,catapora
1289,Male,**/**/**,*,NY,febre
1290,Male,**/**/**,*,NY,febre
1291,Male,**/**/**,*,NY,hepatite
1292,Male,**/**/**,*,NY,catapora
1293,Male,**/**/**,*,NY,hepatite
1294,Male,**/**/**,*,NY,aids
1295,Male,**/**/**,*,NY,catapora
1296,Male,**/**/**,*,NY,aids
1297,Male,**/**/**,*,NY,bronquite
1298,Male,**/**/**,*,NY,febre
1299,Male,**/**/**,*,NY,aids
1300,Male,**/**/2017,Buffalo,NY,catapora
1301,Male,**/**/2017,Buffalo,NY,catapora
1302,Male,**/**/2017,Buffalo,NY,caxumba
1303,Male,**/**/2017,Buffalo,NY,bronquite
1304,Male,**/**/2017,Buffalo,NY,dengue
1305,Male,**/**/2017,Buffalo,NY,caxumba
1306,Male,**/**/2017,Buffalo,NY,caxumba
1307,Male,**/**/2017,Buffalo,NY,catapora
1308,Male,**/**/2017,Buffalo,NY,cancer
1309,Male,**/**/2017,Buffalo,NY,cancer
1310,Male,**/**/2017,Buffalo,NY,cancer
1311,Male,**/**/2017,Buffalo,NY,aids
1312,Male,**/**/2017,Buffalo,NY,caxumba
1313,Male,**/**/2017,Buffalo,NY,dengue
1314,Male,**/**/2017,Buffalo,NY,bronquite
1315,Male,**/**/2017,Buffalo,NY,hepatite
1316,Male,**/**/2017,Buffalo,NY,bronquite
1317,Male,**/**/2017,Buffalo,NY,caxumba
1318,Male,**/**/2017,Buffalo,NY,cancer
1319,Male,**/**/2017,Buffalo,NY,hepatite
1320,Male,**/**/2017,Buffalo,NY,febre
1321,Male,**/**/2017,Buffalo,NY,febre
1322,Male,**/**/2017,Buffalo,NY,cancer
1323,Male,**/**/2017,Buffalo,NY,febre
1324,Male,**/**/2017,Buffalo,NY,cancer
1325,Male,**/**/2017,Buffalo,NY,bronquite
1326,Male,**/**/2017,Buffalo,NY,dengue
1327,Male,**/**/2017,Buffalo,NY,caxumba
1328,Male,**/**/2017,Buffalo,NY,dengue
1329,Male,**/**/2017,Buffalo,NY,caxumba
1330,Male,**/**/2017,Buffalo,NY,caxumba
1331,Male,**/**/2017,Buffalo,NY,catapora
1332,Male,**/**/2017,Buffalo,NY,dengue
1333,Male,**/**/2017,Buffalo,NY,caxumba
1334,Male,**/**/2017,Buffalo,NY,hepatite
1335,Male,**/**/2017,Buffalo,NY,dengue
1336,Male,**/**/2017,Buffalo,NY,caxumba
1337,Male,**/**/2017,Buffalo,NY,dengue
1338,Male,**/**/2017,Buffalo,NY,aids
1339,Male,**/**/2017,Buffalo,NY,caxumba
1340,Male,**/**/**,Buffalo,NY,febre
1341,Male,**/**/**,Buffalo,NY,catapora
1342,Male,**/**/**,Buffalo,NY,febre
1343,Male,**/**/**,Buffalo,NY,febre
1344,Male,**/**/**,Buffalo,NY,hepatite
1345,Male,**/**/**,Buffalo,NY,bronquite
1346,Male,**/**/**,Buffalo,NY,bronquite
1347,Male,**/**/**,Buffalo,NY,aids
1348,Male,**/**/**,Buffalo,NY,hepatite
1349,Male,**/**/**,Buffalo,NY,cancer
1350,Male,**/**/**,Buffalo,NY,catapora
1351,Male,**/**/**,Buffalo,NY,cancer
1352,Male,**/**/**,Buffalo,NY,bronquite
1353,Male,**/**/**,Buffalo,NY,caxumba
1354,Male,**/**/**,Buffalo,NY,caxumba
1355,Male,**/**/**,Buffalo,NY,catapora
1356,Male,**/**/**,Buffalo,NY,catapora
1357,Male,**/**/**,Buffalo,NY,bronquite
1358,Male,**/**/**,Buffalo,NY,aids
1359,Male,**/**/**,Buffalo,NY,catapora
1360,Male,**/**/**,*,NY,caxumba
1361,Male,**/**/**,*,NY,dengue
1362,Male,**/**/**,*,NY,hepatite
1363,Male,**/**/**,*,NY,caxumba
1364,Male,**/**/**,*,NY,hepatite
1365,Male,**/**/**,*,NY,aids
1366,Male,**/**/**,*,NY,febre
1367,Male,**/**/**,*,NY,hepatite
1368,Male,**/**/**,*,NY,hepatite
1369,Male,**/**/**,*,NY,catapora
1370,Male,**/**/**,*,NY,dengue
1371,Male,**/**/**,*,NY,febre
1372,Male,**/**/**,*,NY,cancer
1373,Male,**/**/**,*,NY,aids
1374,Male,**/**/**,*,NY,cancer
1375,Male,**/**/**,*,NY,catapora
1376,Male,**/**/**,*,NY,caxumba
1377,Male,**/**/**,*,NY,bronquite
1378,Male,**/**/**,*,NY,catapora
1379,Male,**/**/**,*,NY,hepatite
1380,Male,**/**/**,*,NY,dengue
1381,Male,**/**/**,*,NY,aids
1382,Male,**/**/**,*,NY,caxumba
1383,Male,**/**/**,*,NY,catapora
1384,Male,**/**/**,*,NY,dengue
1385,Male,**/**/**,*,NY,catapora
1386,Male,**/**/**,*,NY,febre
1387,Male,**/**/**,*,NY,hepatite
1388,Male,**/**/**,*,NY,cancer
1389,Male,**/**/**,*,NY,aids
1390,Male,**/**/**,*,NY,hepatite
1391,Male,**/**/**,*,NY,dengue
1392,Male,**/**/**,*,NY,hepatite
1393,Male,**/**/**,*,NY,cancer
1394,Male,**/**/**,*,NY,hepatite
1395,Male,**/**/**,*,NY,febre
1396,Male,**/**/**,*,NY,aids
1397,Male,**/**/**,*,NY,bronquite
1398,Male,**/**/**,*,NY,dengue
1399,Male,**/**/**,*,NY,febre
1400,Male,**/**/**,Jamaica,NY,febre
1401,Male,**/**/**,Jamaica,NY,hepatite
1402,Male,**/**/**,Jamaica,NY,dengue
1403,Male,**/**/**,Jamaica,NY,cancer
1404,Male,**/**/**,Jamaica,NY,cancer
1405,Male,**/**/**,Jamaica,NY,catapora
1406,Male,**/**/**,Jamaica,NY,aids
1407,Male,**/**/**,Jamaica,NY,dengue
1408,Male,**/**/**,Jamaica,NY,hepatite
1409,Male,**/**/**,Jamaica,NY,febre
1410,Male,**/**/**,Jamaica,NY,cancer
1411,Male,**/**/**,Jamaica,NY,bronquite
1412,Male,**/**/**,Jamaica,NY,cancer
1413,Male,**/**/**,Jamaica,NY,aids
1414,Male,**/**/**,Jamaica,NY,catapora
1415,Male,**/**/**,Jamaica,NY,aids
1416,Male,**/**/**,Jamaica,NY,febre
1417,Male,**/**/**,Jamaica,NY,bronquite
1418,Male,**/**/**,Jamaica,NY,aids
1419,Male,**/**/**,Jamaica,NY,dengue
1420,Male,**/**/**,*,NY,hepatite
1421,Male,**/**/**,*,NY,bronquite
1422,Male,**/**/**,*,NY,catapora
1423,Male,**/**/**,*,NY,caxumba
1424,Male,**/**/**,*,NY,hepatite
1425,Male,**/**/**,*,NY,caxumba
1426,Male,**/**/**,*,NY,dengue
1427,Male,**/**/**,*,NY,aids
1428,Male,**/**/**,*,NY,bronquite
1429,Male,**/**/**,*,NY,hepatite
1430,Male,**/**/**,*,NY,caxumba
1431,Male,**/**/**,*,NY,cancer
1432,Male,**/**/**,*,NY,febre
1433,Male,**/**/**,*,NY,dengue
1434,Male,**/**/**,*,NY,hepatite
1435,Male,**/**/**,*,NY,cancer
1436,Male,**/**/**,*,NY,bronquite
1437,Male,**/**/**,*,NY,catapora
1438,Male,**/**/**,*,NY,febre
1439,Male,**/**/**,*,NY,dengue
1440,Male,**/**/**,*,NY,febre
1441,Male,**/**/**,*,NY,febre
1442,Male,**/**/**,*,NY,hepatite
1443,Male,**/**/**,*,NY,caxumba
1444,Male,**/**/**,*,NY,dengue
1445,Male,**/**/**,*,NY,febre
1446,Male,**/**/**,*,NY,bronquite
1447,Male,**/**/**,*,NY,bronquite
1448,Male,**/**/**,*,NY,aids
1449,Male,**/**/**,*,NY,caxumba
1450,Male,**/**/**,*,NY,cancer
1451,Male,**/**/**,*,NY,aids
1452,Male,**/**/**,*,NY,catapora
1453,Male,**/**/**,*,NY,caxumba
1454,Male,**/**/**,*,NY,dengue
1455,Male,**/**/**,*,NY,catapora
1456,Male,**/**/**,*,NY,catapora
1457,Male,**/**/**,*,NY,caxumba
1458,Male,**/**/**,*,NY,bronquite
1459,Male,**/**/**,*,NY,dengue
1460,Male,**/**/2017,New York City,NY,aids
1461,Male,**/**/2017,New York City,NY,dengue
1462,Male,**/**/2017,New York City,NY,febre
1463,Male,**/**/2017,New York City,NY,cancer
1464,Male,**/**/2017,New York City,NY,catapora
1465,Male,**/**/2017,New York City,NY,bronquite
1466,Male,**/**/2017,New York City,NY,febre
1467,Male,**/**/2017,New York City,NY,febre
1468,Male,**/**/2017,New York City,NY,bronquite
1469,Male,**/**/2017,New York City,NY,cancer
1470,Male,**/**/2017,New York City,NY,bronquite
1471,Male,**/**/2017,New York City,NY,febre
1472,Male,**/**/2017,New York City,NY,febre
1473,Male,**/**/2017,New York City,NY,bronquite
1474,Male,**/**/2017,New York City,NY,febre
1475,Male,**/**/2017,New York City,NY,hepatite
1476,Male,**/**/2017,New York City,NY,febre
1477,Male,**/**/2017,New York City,NY,cancer
1478,Male,**/**/2017,New York City,NY,cancer
1479,Male,**/**/2017,New York City,NY,catapora
1480,Male,**/**/2017,New York City,NY,febre
1481,Male,**/**/2017,New York City,NY,febre
1482,Male,**/**/2017,New York City,NY,aids
1483,Male,**/**/2017,New York City,NY,aids
1484,Male,**/**/2017,New York City,NY,hepatite
1485,Male,**/**/2017,New York City,NY,caxumba
1486,Male,**/**/2017,New York City,NY,catapora
1487,Male,**/**/2017,New York City,NY,catapora
1488,Male,**/**/2017,New York City,NY,hepatite
1489,Male,**/**/2017,New York City,NY,cancer
1490,Male,**/**/2017,New York City,NY,febre
1491,Male,**/**/2017,New York City,NY,aids
1492,Male,**/**/2017,New York City,NY,dengue
1493,Male,**/**/2017,New York City,NY,catapora
1494,Male,**/**/2017,New York City,NY,dengue
1495,Male,**/**/2017,New York City,NY,caxumba
1496,Male,**/**/2017,New York City,NY,bronquite
1497,Male,**/**/2017,New York City,NY,aids
1498,Male,**/**/2017,New York City,NY,bronquite
1499,Male,**/**/2017,New York City,NY,febre
1500,Male,**/**/2017,New York City,NY,dengue
1501,Male,**/**/2017,New York City,NY,cancer
1502,Male,**/**/2017,New York City,NY,caxumba
1503,Male,**/**/2017,New York City,NY,febre
1504,Male,**/**/2017,New York City,NY,dengue
1505,Male,**/**/2017,New York City,NY,catapora
1506,Male,**/**/2017,New York City,NY,catapora
1507,Male,**/**/2017,New York City,NY,catapora
1508,Male,**/**/2017,New York City,NY,aids
1509,Male,**/**/2017,New York City,NY,bronquite
1510,Male,**/**/2017,New York City,NY,bronquite
1511,Male,**/**/2017,New York City,NY,bronquite
1512,Male,**/**/2017,New York City,NY,cancer
1513,Male,**/**/2017,New York City,NY,hepatite
1514,Male,**/**/2017,New York City,NY,caxumba
1515,Male,**/**/2017,New York City,NY,catapora
1516,Male,**/**/2017,New York City,NY,cancer
1517,Male,**/**/2017,New York City,NY,bronquite
1518,Male,**/**/2017,New York City,NY,cancer
1519,Male,**/**/2017,New York City,NY,aids
1520,Male,**/**/2017,New York City,NY,caxumba
1521,Male,**/**/2017,New York City,NY,dengue
1522,Male,**/**/2017,New York City,NY,caxumba
1523,Male,**/**/2017,New York City,NY,cancer
1524,Male,**/**/2017,New York City,NY,hepatite
1525,Male,**/**/2017,New York City,NY,febre
1526,Male,**/**/2017,New York City,NY,bronquite
1527,Male,**/**/2017,New York City,NY,caxumba
1528,Male,**/**/2017,New York City,NY,catapora
1529,Male,**/**/2017,New York City,NY,aids
1530,Male,**/**/2017,New York City,NY,cancer
1531,Male,**/**/2017,New York City,NY,caxumba
1532,Male,**/**/2017,New York City,NY,bronquite
1533,Male,**/**/2017,New York City,NY,cancer
1534,Male,**/**/2017,New York City,NY,dengue
1535,Male,**/**/2017,New York City,NY,dengue
1536,Male,**/**/2017,New York City,NY,catapora
1537,Male,**/**/2017,New York City,NY,caxumba
1538,Male,**/**/2017,New York City,NY,aids
1539,Male,**/**/2017,New York City,NY,catapora
1540,Male,**/**/2017,New York City,NY,hepatite
1541,Male,**/**/2017,New York City,NY,aids
1542,Male,**/**/2017,New York City,NY,catapora
1543,Male,**/**/2017,New York City,NY,cancer
1544,Male,**/**/2017,New York City,NY,febre
1545,Male,**/**/2017,New York City,NY,aids
1546,Male,**/**/2017,New York City,NY,catapora
1547,Male,**/**/2017,New York City,NY,febre
1548,Male,**/**/2017,New York City,NY,caxumba
1549,Male,**/**/2017,New York City,NY,febre
1550,Male,**/**/2017,New York City,NY,bronquite
1551,Male,**/**/2017,New York City,NY,hepatite
1552,Male,**/**/2017,New York City,NY,cancer
1553,Male,**/**/2017,New York City,NY,febre
1554,Male,**/**/2017,New York City,NY,cancer
1555,Male,**/**/2017,New York City,NY,dengue
1556,Male,**/**/2017,New York City,NY,hepatite
1557,Male,**/**/2017,New York City,NY,bronquite
1558,Male,**/**/2017,New York City,NY,hepatite
1559,Male,**/**/2017,New York City,NY,bronquite
1560,Male,**/**/**,New York City,NY,hepatite
1561,Male,**/**/**,New York City,NY,febre
1562,Male,**/**/**,New York City,NY,bronquite
1563,Male,**/**/**,New York City,NY,febre
1564,Male,**/**/**,New York City,NY,caxumba
1565,Male,**/**/**,New York City,NY,dengue
1566,Male,**/**/**,New York City,NY,catapora
1567,Male,**/**/**,New York City,NY,aids
1568,Male,**/**/**,New York City,NY,dengue
1569,Male,**/**/**,New York City,NY,hepatite
1570,Male,**/**/**,New York City,NY,dengue
1571,Male,**/**/**,New York City,NY,febre
1572,Male,**/**/**,New York City,NY,caxumba
1573,Male,**/**/**,New York City,NY,bronquite
1574,Male,**/**/**,New York City,NY,dengue
1575,Male,**/**/**,New York City,NY,aids
1576,Male,**/**/**,New York City,NY,hepatite
1577,Male,**/**/**,New York City,NY,aids
1578,Male,**/**/**,New York City,NY,cancer
1579,Male,**/**/**,New York City,NY,aids
1580,Male,**/**/2018,New York City,NY,catapora
1581,Male,**/**/2018,New York City,NY,febre
1582,Male,**/**/2018,New York City,NY,febre
1583,Male,**/**/2018,New York City,NY,hepatite
1584,Male,**/**/2018,New York City,NY,hepatite
1585,Male,**/**/2018,New York City,NY,caxumba
1586,Male,**/**/2018,New York City,NY,dengue
1587,Male,**/**/2018,New York City,NY,caxumba
1588,Male,**/**/2018,New York City,NY,dengue
1589,Male,**/**/2018,New York City,NY,febre
1590,Male,**/**/2018,New York City,NY,caxumba
1591,Male,**/**/2018,New York City,NY,hepatite
1592,Male,**/**/2018,New York City,NY,bronquite
1593,Male,**/**/2018,New York City,NY,dengue
1594,Male,**/**/2018,New York City,NY,febre
1595,Male,**/**/2018,New York City,NY,bronquite
1596,Male,**/**/2018,New York City,NY,dengue
1597,Male,**/**/2018,New York City,NY,hepatite
1598,Male,**/**/2018,New York City,NY,febre
1599,Male,**/**/2018,New York City,NY,febre
1600,Male,**/**/2018,New York City,NY,hepatite
1601,Male,**/**/2018,New York City,NY,cancer
1602,Male,**/**/2018,New York City,NY,caxumba
1603,Male,**/**/2018,New York City,NY,febre
1604,Male,**/**/2018,New York City,NY,bronquite
1605,Male,**/**/2018,New York City,NY,bronquite
1606,Male,**/**/2018,New York City,NY,hepatite
1607,Male,**/**/2018,New York City,NY,bronquite
1608,Male,**/**/2018,New York City,NY,febre
1609,Male,**/**/2018,New York City,NY,hepatite
1610,Male,**/**/2018,New York City,NY,cancer
1611,Male,**/**/2018,New York City,NY,caxumba
1612,Male,**/**/2018,New York City,NY,bronquite
1613,Male,**/**/2018,New York City,NY,catapora
1614,Male,**/**/2018,New York City,NY,caxumba
1615,Male,**/**/2018,New York City,NY,dengue
1616,Male,**/**/2018,New York City,NY,hepatite
1617,Male,**/**/2018,New York City,NY,hepatite
1618,Male,**/**/2018,New York City,NY,febre
1619,Male,**/**/2018,New York City,NY,aids
1620,Male,**/**/**,*,NY,catapora
1621,Male,**/**/**,*,NY,catapora
1622,Male,**/**/**,*,NY,bronquite
1623,Male,**/**/**,*,NY,caxumba
1624,Male,**/**/**,*,NY,caxumba
1625,Male,**/**/**,*,NY,febre
1626,Male,**/**/**,*,NY,febre
1627,Male,**/**/**,*,NY,dengue
1628,Male,**/**/**,*,NY,aids
1629,Male,**/**/**,*,NY,bronquite
1630,Male,**/**/**,*,NY,hepatite
1631,Male,**/**/**,*,NY,aids
1632,Male,**/**/**,*,NY,hepatite
1633,Male,**/**/**,*,NY,dengue
1634,Male,**/**/**,*,NY,hepatite
1635,Male,**/**/**,*,NY,catapora
1636,Male,**/**/**,*,NY,bronquite
1637,Male,**/**/**,*,NY,bronquite
1638,Male,**/**/**,*,NY,bronquite
1639,Male,**/**/**,*,NY,catapora
1640,Male,**/**/2017,Rochester,NY,febre
1641,Male,**/**/2017,Rochester,NY,catapora
1642,Male,**/**/2017,Rochester,NY,aids
1643,Male,**/**/2017,Rochester,NY,aids
1644,Male,**/**/2017,Rochester,NY,catapora
1645,Male,**/**/2017,Rochester,NY,febre
1646,Male,**/**/2017,Rochester,NY,catapora
1647,Male,**/**/2017,Rochester,NY,dengue
1648,Male,**/**/2017,Rochester,NY,febre
1649,Male,**/**/2017,Rochester,NY,febre
1650,Male,**/**/2017,Rochester,NY,aids
1651,Male,**/**/2017,Rochester,NY,febre
1652,Male,**/**/2017,Rochester,NY,cancer
1653,Male,**/**/2017,Rochester,NY,hepatite
1654,Male,**/**/2017,Rochester,NY,bronquite
1655,Male,**/**/2017,Rochester,NY,bronquite
1656,Male,**/**/2017,Rochester,NY,bronquite
1657,Male,**/**/2017,Rochester,NY,dengue
1658,Male,**/**/2017,Rochester,NY,hepatite
1659,Male,**/**/2017,Rochester,NY,bronquite
1660,Male,**/**/2017,Rochester,NY,hepatite
1661,Male,**/**/2017,Rochester,NY,aids
1662,Male,**/**/2017,Rochester,NY,aids
1663,Male,**/**/2017,Rochester,NY,bronquite
1664,Male,**/**/2017,Rochester,NY,cancer
1665,Male,**/**/2017,Rochester,NY,catapora
1666,Male,**/**/2017,Rochester,NY,catapora
1667,Male,**/**/2017,Rochester,NY,dengue
1668,Male,**/**/2017,Rochester,NY,hepatite
1669,Male,**/**/2017,Rochester,NY,caxumba
1670,Male,**/**/2017,Rochester,NY,cancer
1671,Male,**/**/2017,Rochester,NY,aids
1672,Male,**/**/2017,Rochester,NY,cancer
1673,Male,**/**/2017,Rochester,NY,hepatite
1674,Male,**/**/2017,Rochester,NY,aids
1675,Male,**/**/2017,Rochester,NY,febre
1676,Male,**/**/2017,Rochester,NY,caxumba
1677,Male,**/**/2017,Rochester,NY,febre
1678,Male,**/**/2017,Rochester,NY,febre
1679,Male,**/**/2017,Rochester,NY,hepatite
1680,Male,**/**/**,*,NY,cancer
1681,Male,**/**/**,*,NY,aids
1682,Male,**/**/**,*,NY,dengue
1683,Male,**/**/**,*,NY,catapora
1684,Male,**/**/**,*,NY,aids
1685,Male,**/**/**,*,NY,caxumba
1686,Male,**/**/**,*,NY,dengue
1687,Male,**/**/**,*,NY,catapora
1688,Male,**/**/**,*,NY,aids
1689,Male,**/**/**,*,NY,caxumba
1690,Male,**/**/**,*,NY,febre
1691,Male,**/**/**,*,NY,cancer
1692,Male,**/**/**,*,NY,dengue
1693,Male,**/**/**,*,NY,bronquite
1694,Male,**/**/**,*,NY,aids
1695,Male,**/**/**,*,NY,bronquite
1696,Male,**/**/**,*,NY,catapora
1697,Male,**/**/**,*,NY,febre
1698,Male,**/**/**,*,NY,catapora
1699,Male,**/**/**,*,NY,caxumba
1700,Male,**/**/**,*,NY,hepatite
1701,Male,**/**/**,*,NY,cancer
1702,Male,**/**/**,*,NY,cancer
1703,Male,**/**/**,*,NY,febre
1704,Male,**/**/**,*,NY,aids
1705,Male,**/**/**,*,NY,cancer
1706,Male,**/**/**,*,NY,hepatite
1707,Male,**/**/**,*,NY,dengue
1708,Male,**/**/**,*,NY,cancer
1709,Male,**/**/**,*,NY,cancer
1710,Male,**/**/**,*,NY,hepatite
1711,Male,**/**/**,*,NY,catapora
1712,Male,**/**/**,*,NY,cancer
1713,Male,**/**/**,*,NY,dengue
1714,Male,**/**/**,*,NY,caxumba
1715,Male,**/**/**,*,NY,aids
1716,Male,**/**/**,*,NY,catapora
1717,Male,**/**/**,*,NY,bronquite
1718,Male,**/**/**,*,NY,dengue
1719,Male,**/**/**,*,NY,cancer
1720,Male,**/**/2017,Syracuse,NY,cancer
1721,Male,**/**/2017,Syracuse,NY,hepatite
1722,Male,**/**/2017,Syracuse,NY,catapora
1723,Male,**/**/2017,Syracuse,NY,hepatite
1724,Male,**/**/2017,Syracuse,NY,febre
1725,Male,**/**/2017,Syracuse,NY,bronquite
1726,Male,**/**/2017,Syracuse,NY,hepatite
1727,Male,**/**/2017,Syracuse,NY,hepatite
1728,Male,**/**/2017,Syracuse,NY,aids
1729,Male,**/**/2017,Syracuse,NY,dengue
1730,Male,**/**/2017,Syracuse,NY,aids
1731,Male,**/**/2017,Syracuse,NY,hepatite
1732,Male,**/**/2017,Syracuse,NY,febre
1733,Male,**/**/2017,Syracuse,NY,bronquite
1734,Male,**/**/2017,Syracuse,NY,hepatite
1735,Male,**/**/2017,Syracuse,NY,aids
1736,Male,**/**/2017,Syracuse,NY,hepatite
1737,Male,**/**/2017,Syracuse,NY,hepatite
1738,Male,**/**/2017,Syracuse,NY,bronquite
1739,Male,**/**/2017,Syracuse,NY,cancer
1740,Male,**/**/**,*,NY,bronquite
1741,Male,**/**/**,*,NY,caxumba
1742,Male,**/**/**,*,NY,aids
1743,Male,**/**/**,*,NY,caxumba
1744,Male,**/**/**,*,NY,febre
1745,Male,**/**/**,*,NY,catapora
1746,Male,**/**/**,*,NY,aids
1747,Male,**/**/**,*,NY,cancer
1748,Male,**/**/**,*,NY,cancer
1749,Male,**/**/**,*,NY,aids
1750,Male,**/**/**,*,NY,caxumba
1751,Male,**/**/**,*,NY,bronquite
1752,Male,**/**/**,*,NY,aids
1753,Male,**/**/**,*,NY,aids
1754,Male,**/**/**,*,NY,febre
1755,Male,**/**/**,*,NY,dengue
1756,Male,**/**/**,*,NY,cancer
1757,Male,**/**/**,*,NY,caxumba
1758,Male,**/**/**,*,NY,hepatite
1759,Male,**/**/**,*,NY,catapora
1760,Male,**/**/**,*,*,bronquite
1761,Male,**/**/**,*,*,cancer
1762,Male,**/**/**,*,*,catapora
1763,Male,**/**/**,*,*,caxumba
1764,Male,**/**/**,*,*,cancer
1765,Male,**/**/**,*,*,dengue
1766,Male,**/**/**,*,*,aids
1767,Male,**/**/**,*,*,hepatite
1768,Male,**/**/**,*,*,bronquite
1769,Male,**/**/**,*,*,cancer
1770,Male,**/**/**,*,*,bronquite
1771,Male,**/**/**,*,*,bronquite
1772,Male,**/**/**,*,*,dengue
1773,Male,**/**/**,*,*,aids
1774,Male,**/**/**,*,*,cancer
1775,Male,**/**/**,*,*,bronquite
1776,Male,**/**/**,*,*,hepatite
1777,Male,**/**/**,*,*,aids
1778,Male,**/**/**,*,*,catapora
1779,Male,**/**/**,*,*,bronquite
1780,Male,**/**/**,*,WA,dengue
1781,Male,**/**/**,*,WA,cancer
1782,Male,**/**/**,*,WA,cancer
1783,Male,**/**/**,*,WA,aids
1784,Male,**/**/**,*,WA,catapora
1785,Male,**/**/**,*,WA,caxumba
1786,Male,**/**/**,*,WA,dengue
1787,Male,**/**/**,*,WA,febre
1788,Male,**/**/**,*,WA,bronquite
1789,Male,**/**/**,*,WA,aids
1790,Male,**/**/**,*,WA,cancer
1791,Male,**/**/**,*,WA,aids
1792,Male,**/**/**,*,WA,cancer
1793,Male,**/**/**,*,WA,febre
1794,Male,**/**/**,*,WA,dengue
1795,Male,**/**/**,*,WA,caxumba
1796,Male,**/**/**,*,WA,bronquite
1797,Male,**/**/**,*,WA,hepatite
1798,Male,**/**/**,*,WA,febre
1799,Male,**/**/**,*,WA,dengue
1800,Male,**/**/**,*,WA,cancer
1801,Male,**/**/**,*,WA,caxumba
1802,Male,**/**/**,*,WA,dengue
1803,Male,**/**/**,*,WA,febre
1804,Male,**/**/**,*,WA,hepatite
1805,Male,**/**/**,*,WA,caxumba
1806,Male,**/**/**,*,WA,hepatite
1807,Male,**/**/**,*,WA,febre
1808,Male,**/**/**,*,WA,cancer
1809,Male,**/**/**,*,WA,hepatite
1810,Male,**/**/**,*,WA,dengue
1811,Male,**/**/**,*,WA,cancer
1812,Male,**/**/**,*,WA,febre
1813,Male,**/**/**,*,WA,febre
1814,Male,**/**/**,*,WA,dengue
1815,Male,**/**/**,*,WA,aids
1816,Male,**/**/**,*,WA,caxumba
1817,Male,**/**/**,*,WA,caxumba
1818,Male,**/**/**,*,WA,caxumba
1819,Male,**/**/**,*,WA,hepatite
1820,Male,**/**/2017,Seattle,WA,cancer
1821,Male,**/**/2017,Seattle,WA,dengue
1822,Male,**/**/2017,Seattle,WA,bronquite
1823,Male,**/**/2017,Seattle,WA,cancer
1824,Male,**/**/2017,Seattle,WA,caxumba
1825,Male,**/**/2017,Seattle,WA,febre
1826,Male,**/**/2017,Seattle,WA,bronquite
1827,Male,**/**/2017,Seattle,WA,caxumba
1828,Male,**/**/2017,Seattle,WA,catapora
1829,Male,**/**/2017,Seattle,WA,bronquite
1830,Male,**/**/2017,Seattle,WA,dengue
1831,Male,**/**/2017,Seattle,WA,caxumba
1832,Male,**/**/2017,Seattle,WA,bronquite
1833,Male,**/**/2017,Seattle,WA,bronquite
1834,Male,**/**/2017,Seattle,WA,aids
1835,Male,**/**/2017,Seattle,WA,aids
1836,Male,**/**/2017,Seattle,WA,caxumba
1837,Male,**/**/2017,Seattle,WA,bronquite
1838,Male,**/**/2017,Seattle,WA,hepatite
1839,Male,**/**/2017,Seattle,WA,cancer
1840,Male,**/**/2017,Seattle,WA,hepatite
1841,Male,**/**/2017,Seattle,WA,febre
1842,Male,**/**/2017,Seattle,WA,febre
1843,Male,**/**/2017,Seattle,WA,aids
1844,Male,**/**/2017,Seattle,WA,caxumba
1845,Male,**/**/2017,Seattle,WA,aids
1846,Male,**/**/2017,Seattle,WA,caxumba
1847,Male,**/**/2017,Seattle,WA,febre
1848,Male,**/**/2017,Seattle,WA,aids
1849,Male,**/**/2017,Seattle,WA,caxumba
1850,Male,**/**/2017,Seattle,WA,bronquite
1851,Male,**/**/2017,Seattle,WA,bronquite
1852,Male,**/**/2017,Seattle,WA,bronquite
1853,Male,**/**/2017,Seattle,WA,catapora
1854,Male,**/**/2017,Seattle,WA,dengue
1855,Male,**/**/2017,Seattle,WA,caxumba
1856,Male,**/**/2017,Seattle,WA,bronquite
1857,Male,**/**/2017,Seattle,WA,cancer
1858,Male,**/**/2017,Seattle,WA,febre
1859,Male,**/**/2017,Seattle,WA,aids
1860,Male,**/**/**,Seattle,WA,bronquite
1861,Male,**/**/**,Seattle,WA,aids
1862,Male,**/**/**,Seattle,WA,cancer
1863,Male,**/**/**,Seattle,WA,febre
1864,Male,**/**/**,Seattle,WA,aids
1865,Male,**/**/**,Seattle,WA,catapora
1866,Male,**/**/**,Seattle,WA,hepatite
1867,Male,**/**/**,Seattle,WA,catapora
1868,Male,**/**/**,Seattle,WA,cancer
1869,Male,**/**/**,Seattle,WA,dengue
1870,Male,**/**/**,Seattle,WA,bronquite
1871,Male,**/**/**,Seattle,WA,caxumba
1872,Male,**/**/**,Seattle,WA,dengue
1873,Male,**/**/**,Seattle,WA,hepatite
1874,Male,**/**/**,Seattle,WA,aids
1875,Male,**/**/**,Seattle,WA,dengue
1876,Male,**/**/**,Seattle,WA,febre
1877,Male,**/**/**,Seattle,WA,cancer
1878,Male,**/**/**,Seattle,WA,aids
1879,Male,**/**/**,Seattle,WA,catapora
1880,Male,**/**/**,*,WA,dengue
1881,Male,**/**/**,*,WA,hepatite
1882,Male,**/**/**,*,WA,catapora
1883,Male,**/**/**,*,WA,hepatite
1884,Male,**/**/**,*,WA,dengue
1885,Male,**/**/**,*,WA,cancer
1886,Male,**/**/**,*,WA,hepatite
1887,Male,**/**/**,*,WA,bronquite
1888,Male,**/**/**,*,WA,dengue
1889,Male,**/**/**,*,WA,hepatite
1890,Male,**/**/**,*,WA,aids
1891,Male,**/**/**,*,WA,catapora
1892,Male,**/**/**,*,WA,febre
1893,Male,**/**/**,*,WA,aids
1894,Male,**/**/**,*,WA,catapora
1895,Male,**/**/**,*,WA,bronquite
1896,Male,**/**/**,*,WA,hepatite
1897,Male,**/**/**,*,WA,dengue
1898,Male,**/**/**,*,WA,bronquite
1899,Male,**/**/**,*,WA,aids
1900,Male,**/**/**,Spokane,WA,febre
1901,Male,**/**/**,Spokane,WA,bronquite
1902,Male,**/**/**,Spokane,WA,aids
1903,Male,**/**/**,Spokane,WA,hepatite
1904,Male,**/**/**,Spokane,WA,aids
1905,Male,**/**/**,Spokane,WA,cancer
1906,Male,**/**/**,Spokane,WA,hepatite
1907,Male,**/**/**,Spokane,WA,cancer
1908,Male,**/**/**,Spokane,WA,febre
1909,Male,**/**/**,Spokane,WA,aids
1910,Male,**/**/**,Spokane,WA,aids
1911,Male,**/**/**,Spokane,WA,catapora
1912,Male,**/**/**,Spokane,WA,dengue
1913,Male,**/**/**,Spokane,WA,hepatite
1914,Male,**/**/**,Spokane,WA,cancer
1915,Male,**/**/**,Spokane,WA,dengue
1916,Male,**/**/**,Spokane,WA,caxumba
1917,Male,**/**/**,Spokane,WA,bronquite
1918,Male,**/**/**,Spokane,WA,bronquite
1919,Male,**/**/**,Spokane,WA,caxumba
1920,Male,**/**/**,*,WA,hepatite
1921,Male,**/**/**,*,WA,febre
1922,Male,**/**/**,*,WA,cancer
1923,Male,**/**/**,*,WA,caxumba
1924,Male,**/**/**,*,WA,dengue
1925,Male,**/**/**,*,WA,cancer
1926,Male,**/**/**,*,WA,bronquite
1927,Male,**/**/**,*,WA,hepatite
1928,Male,**/**/**,*,WA,dengue
1929,Male,**/**/**,*,WA,bronquite
1930,Male,**/**/**,*,WA,caxumba
1931,Male,**/**/**,*,WA,cancer
1932,Male,**/**/**,*,WA,catapora
1933,Male,**/**/**,*,WA,febre
1934,Male,**/**/**,*,WA,bronquite
1935,Male,**/**/**,*,WA,cancer
1936,Male,**/**/**,*,WA,bronquite
1937,Male,**/**/**,*,WA,catapora
1938,Male,**/**/**,*,WA,catapora
1939,Male,**/**/**,*,WA,caxumba
1940,Male,**/**/**,Tacoma,WA,cancer
1941,Male,**/**/**,Tacoma,WA,cancer
1942,Male,**/**/**,Tacoma,WA,febre
1943,Male,**/**/**,Tacoma,WA,bronquite
1944,Male,**/**/**,Tacoma,WA,cancer
1945,Male,**/**/**,Tacoma,WA,hepatite
1946,Male,**/**/**,Tacoma,WA,dengue
1947,Male,**/**/**,Tacoma,WA,caxumba
1948,Male,**/**/**,Tacoma,WA,hepatite
1949,Male,**/**/**,Tacoma,WA,caxumba
1950,Male,**/**/**,Tacoma,WA,dengue
1951,Male,**/**/**,Tacoma,WA,cancer
1952,Male,**/**/**,Tacoma,WA,caxumba
1953,Male,**/**/**,Tacoma,WA,dengue
1954,Male,**/**/**,Tacoma,WA,aids
1955,Male,**/**/**,Tacoma,WA,catapora
1956,Male,**/**/**,Tacoma,WA,cancer
1957,Male,**/**/**,Tacoma,WA,caxumba
1958,Male,**/**/**,Tacoma,WA,febre
1959,Male,**/**/**,Tacoma,WA,aids
1960,Male,**/**/**,*,WA,catapora
1961,Male,**/**/**,*,WA,cancer
1962,Male,**/**/**,*,WA,febre
1963,Male,**/**/**,*,WA,hepatite
1964,Male,**/**/**,*,WA,aids
1965,Male,**/**/**,*,WA,catapora
1966,Male,**/**/**,*,WA,febre
1967,Male,**/**/**,*,WA,hepatite
1968,Male,**/**/**,*,WA,hepatite
1969,Male,**/**/**,*,WA,caxumba
1970,Male,**/**/**,*,WA,dengue
1971,Male,**/**/**,*,WA,dengue
1972,Male,**/**/**,*,WA,bronquite
1973,Male,**/**/**,*,WA,bronquite
1974,Male,**/**/**,*,WA,aids
1975,Male,**/**/**,*,WA,catapora
1976,Male,**/**/**,*,WA,bronquite
1977,Male,**/**/**,*,WA,catapora
1978,Male,**/**/**,*,WA,caxumba
1979,Male,**/**/**,*,WA,aids
1980,Male,**/**/**,*,*,catapora
1981,Male,**/**/**,*,*,catapora
1982,Male,**/**/**,*,*,cancer
1983,Male,**/**/**,*,*,hepatite
1984,Male,**/**/**,*,*,febre
1985,Male,**/**/**,*,*,dengue
1986,Male,**/**/**,*,*,bronquite
1987,Male,**/**/**,*,*,hepatite
1988,Male,**/**/**,*,*,cancer
1989,Male,**/**/**,*,*,dengue
1990,Male,**/**/**,*,*,febre
1991,Male,**/**/**,*,*,catapora
1992,Male,**/**/**,*,*,bronquite
1993,Male,**/**/**,*,*,dengue
1994,Male,**/**/**,*,*,febre
1995,Male,**/**/**,*,*,caxumba
1996,Male,**/**/**,*,*,bronquite
1997,Male,**/**/**,*,*,cancer
1998,Male,**/**/**,*,*,febre
1999,Male,**/**/**,*,*,cancer
